****************************************************************************************************************************************************************
***                                WIDEN YOUR WINDOW TO 160 CHARACTERS.  Use 'enscript -r -fCourier9' to print this document                                 ***
****************************************************************************************************************************************************************

------------------------------------------------------------------ PETSc Performance Summary: ------------------------------------------------------------------

/autofs/nccs-svm1_home2/hsuh/petsc/arch-olcf-frontier-opt/tests/tao/unconstrained/tutorials/runrosenbrock5_2/../rosenbrock5 on a arch-olcf-frontier-opt named frontier04211 with 8 processors, by hsuh Sat Oct 14 10:58:30 2023
Using Petsc Development GIT revision: v3.19.5-1152-g5c30bd1f6eb  GIT Date: 2023-09-26 14:20:24 -0400

                         Max       Max/Min     Avg       Total
Time (sec):           7.651e-01     1.005   7.620e-01
Objects:              0.000e+00     0.000   0.000e+00
Flops:                2.622e+09     1.000   2.622e+09  2.097e+10
Flops/sec:            3.443e+09     1.005   3.441e+09  2.753e+10
Memory (bytes):       2.014e+07     1.000   2.014e+07  1.611e+08
MPI Msg Count:        3.200e+01     2.000   2.800e+01  2.240e+02
MPI Msg Len (bytes):  2.480e+02     2.000   7.750e+00  1.736e+03
MPI Reductions:       2.000e+02     1.000

Flop counting convention: 1 flop = 1 real number operation of type (multiply/divide/add/subtract)
                            e.g., VecAXPY() for real vectors of length N --> 2N flops
                            and VecAXPY() for complex vectors of length N --> 8N flops

Summary of Stages:   ----- Time ------  ----- Flop ------  --- Messages ---  -- Message Lengths --  -- Reductions --
                        Avg     %Total     Avg     %Total    Count   %Total     Avg         %Total    Count   %Total
 0:      Main Stage: 2.9322e-01  38.5%  0.0000e+00   0.0%  0.000e+00   0.0%  0.000e+00        0.0%  2.200e+01  11.0%
 1: Rosenbrock solve: 6.7576e-02   8.9%  2.3001e+09  11.0%  2.240e+02 100.0%  7.750e+00      100.0%  1.590e+02  79.5%
 2:   Device Warmup: 0.0000e+00   0.0%  0.0000e+00   0.0%  0.000e+00   0.0%  0.000e+00        0.0%  0.000e+00   0.0%

------------------------------------------------------------------------------------------------------------------------
See the 'Profiling' chapter of the users' manual for details on interpreting output.
Phase summary info:
   Count: number of times phase was executed
   Time and Flop: Max - maximum over all processors
                  Ratio - ratio of maximum to minimum over all processors
   Mess: number of messages sent
   AvgLen: average message length (bytes)
   Reduct: number of global reductions
   Global: entire computation
   Stage: stages of a computation. Set stages with PetscLogStagePush() and PetscLogStagePop().
      %T - percent time in this phase         %F - percent flop in this phase
      %M - percent messages in this phase     %L - percent message lengths in this phase
      %R - percent reductions in this phase
   Total Mflop/s: 10e-6 * (sum of flop over all processors)/(max time over all processors)
   GPU Mflop/s: 10e-6 * (sum of flop on GPU over all processors)/(max GPU time over all processors)
   CpuToGpu Count: total number of CPU to GPU copies per processor
   CpuToGpu Size (Mbytes): 10e-6 * (total size of CPU to GPU copies per processor)
   GpuToCpu Count: total number of GPU to CPU copies per processor
   GpuToCpu Size (Mbytes): 10e-6 * (total size of GPU to CPU copies per processor)
   GPU %F: percent flops on GPU in this event
------------------------------------------------------------------------------------------------------------------------
Event                Count      Time (sec)     Flop                              --- Global ---  --- Stage ----  Total   GPU    - CpuToGpu -   - GpuToCpu - GPU
                   Max Ratio  Max     Ratio   Max  Ratio  Mess   AvgLen  Reduct  %T %F %M %L %R  %T %F %M %L %R Mflop/s Mflop/s Count   Size   Count   Size  %F
---------------------------------------------------------------------------------------------------------------------------------------------------------------

--- Event Stage 0: Main Stage

BuildTwoSided          4 1.0   nan nan 0.00e+00 0.0 0.0e+00 0.0e+00 4.0e+00  0  0  0  0  2   0  0  0  0 18  -nan    -nan      0 0.00e+00    0 0.00e+00  0
MatConvert             2 1.0   nan nan 0.00e+00 0.0 0.0e+00 0.0e+00 0.0e+00 27  0  0  0  0  71  0  0  0  0  -nan    -nan      0 0.00e+00    0 0.00e+00  0
MatAssemblyBegin       2 1.0   nan nan 0.00e+00 0.0 0.0e+00 0.0e+00 0.0e+00  0  0  0  0  0   0  0  0  0  0  -nan    -nan      0 0.00e+00    0 0.00e+00  0
MatAssemblyEnd         2 1.0   nan nan 0.00e+00 0.0 0.0e+00 0.0e+00 0.0e+00  0  0  0  0  0   1  0  0  0  0  -nan    -nan      0 0.00e+00    0 0.00e+00  0
MatHIPSPARSCopyTo       2 1.0   nan nan 0.00e+00 0.0 0.0e+00 0.0e+00 0.0e+00  0  0  0  0  0   1  0  0  0  0  -nan    -nan      2 3.50e+00    0 0.00e+00  0
MatSetPreallCOO        1 1.0   nan nan 0.00e+00 0.0 0.0e+00 0.0e+00 8.0e+00 31  0  0  0  4  80  0  0  0 36  -nan    -nan      2 3.50e+00    0 0.00e+00  0
DCtxCreate             2 1.0   nan nan 0.00e+00 0.0 0.0e+00 0.0e+00 0.0e+00  0  0  0  0  0   0  0  0  0  0  -nan    -nan      0 0.00e+00    0 0.00e+00  0
DCtxDestroy            2 1.0   nan nan 0.00e+00 0.0 0.0e+00 0.0e+00 0.0e+00  0  0  0  0  0   0  0  0  0  0  -nan    -nan      0 0.00e+00    0 0.00e+00  0
DCtxSetUp              2 1.0   nan nan 0.00e+00 0.0 0.0e+00 0.0e+00 0.0e+00  1  0  0  0  0   2  0  0  0  0  -nan    -nan      0 0.00e+00    0 0.00e+00  0
DCtxSetDevice          2 1.0   nan nan 0.00e+00 0.0 0.0e+00 0.0e+00 0.0e+00  0  0  0  0  0   0  0  0  0  0  -nan    -nan      0 0.00e+00    0 0.00e+00  0
DCtxSync               6 1.0   nan nan 0.00e+00 0.0 0.0e+00 0.0e+00 0.0e+00  0  0  0  0  0   0  0  0  0  0  -nan    -nan      0 0.00e+00    0 0.00e+00  0
SFSetGraph             5 1.0   nan nan 0.00e+00 0.0 0.0e+00 0.0e+00 0.0e+00  0  0  0  0  0   0  0  0  0  0  -nan    -nan      0 0.00e+00    0 0.00e+00  0
SFSetUp                4 1.0   nan nan 0.00e+00 0.0 0.0e+00 0.0e+00 4.0e+00  0  0  0  0  2   1  0  0  0 18  -nan    -nan      0 0.00e+00    0 0.00e+00  0
SFReduceBegin          2 1.0   nan nan 0.00e+00 0.0 0.0e+00 0.0e+00 0.0e+00  0  0  0  0  0   0  0  0  0  0  -nan    -nan      0 0.00e+00    0 0.00e+00  0
SFReduceEnd            2 1.0   nan nan 0.00e+00 0.0 0.0e+00 0.0e+00 0.0e+00  0  0  0  0  0   0  0  0  0  0  -nan    -nan      0 0.00e+00    0 0.00e+00  0
SFFetchOpBegin         1 1.0   nan nan 0.00e+00 0.0 0.0e+00 0.0e+00 0.0e+00  0  0  0  0  0   0  0  0  0  0  -nan    -nan      0 0.00e+00    0 0.00e+00  0
SFFetchOpEnd           1 1.0   nan nan 0.00e+00 0.0 0.0e+00 0.0e+00 0.0e+00  0  0  0  0  0   0  0  0  0  0  -nan    -nan      0 0.00e+00    0 0.00e+00  0
SFPack                 3 1.0   nan nan 0.00e+00 0.0 0.0e+00 0.0e+00 0.0e+00  0  0  0  0  0   0  0  0  0  0  -nan    -nan      0 0.00e+00    0 0.00e+00  0
SFUnpack               4 1.0   nan nan 0.00e+00 0.0 0.0e+00 0.0e+00 0.0e+00  0  0  0  0  0   0  0  0  0  0  -nan    -nan      0 0.00e+00    0 0.00e+00  0
VecSet                 6 1.0   nan nan 0.00e+00 0.0 0.0e+00 0.0e+00 0.0e+00  0  0  0  0  0   0  0  0  0  0  -nan    -nan      0 0.00e+00    0 0.00e+00  0

--- Event Stage 1: Rosenbrock solve

BuildTwoSided          1 1.0   nan nan 0.00e+00 0.0 7.0e+00 4.0e+00 1.0e+00  0  0  3  2  0   1  0  3  2  1  -nan    -nan      0 0.00e+00    0 0.00e+00  0
MatMultAdd            40 1.0   nan nan 1.05e+08 1.0 0.0e+00 0.0e+00 3.0e+00  2  4  0  0  2  27 37  0  0  2  -nan    -nan     40 6.40e-03    5 8.00e-04  100
MatMultTranspose      20 1.0   nan nan 5.00e+07 1.0 0.0e+00 0.0e+00 3.0e+00  0  2  0  0  2   3 17  0  0  2  -nan    -nan      2 4.00e-04   20 3.20e-03  100
MatMultTrAdd          20 1.0   nan nan 5.00e+07 1.0 0.0e+00 0.0e+00 0.0e+00  0  2  0  0  0   2 17  0  0  0  -nan    -nan      2 4.00e-04   20 3.20e-03  100
MatSolve              21 1.0   nan nan 1.55e+08 1.0 0.0e+00 0.0e+00 3.0e+00  3  6  0  0  2  32 54  0  0  2  -nan    -nan     42 6.80e-03   25 4.00e-03  100
MatConvert             2 1.0   nan nan 0.00e+00 0.0 0.0e+00 0.0e+00 0.0e+00  0  0  0  0  0   0  0  0  0  0  -nan    -nan      0 0.00e+00    0 0.00e+00  0
MatZeroEntries         3 1.0   nan nan 0.00e+00 0.0 0.0e+00 0.0e+00 0.0e+00  0  0  0  0  0   0  0  0  0  0  -nan    -nan      0 0.00e+00    0 0.00e+00  0
DCtxFork              20 1.0   nan nan 0.00e+00 0.0 0.0e+00 0.0e+00 0.0e+00  0  0  0  0  0   0  0  0  0  0  -nan    -nan      0 0.00e+00    0 0.00e+00  0
DCtxJoin              20 1.0   nan nan 0.00e+00 0.0 0.0e+00 0.0e+00 0.0e+00  0  0  0  0  0   0  0  0  0  0  -nan    -nan      0 0.00e+00    0 0.00e+00  0
DCtxSync              75 1.5   nan nan 0.00e+00 0.0 0.0e+00 0.0e+00 0.0e+00  0  0  0  0  0   1  0  0  0  0  -nan    -nan      0 0.00e+00    0 0.00e+00  0
DCtxMark              80 2.0   nan nan 0.00e+00 0.0 0.0e+00 0.0e+00 0.0e+00  0  0  0  0  0   0  0  0  0  0  -nan    -nan      0 0.00e+00    0 0.00e+00  0
SFSetUp                3 1.0   nan nan 0.00e+00 0.0 1.4e+01 4.0e+00 5.0e+00  0  0  6  3  2   1  0  6  3  3  -nan    -nan      0 0.00e+00    0 0.00e+00  0
SFBcastBegin          40 1.0   nan nan 0.00e+00 0.0 0.0e+00 0.0e+00 0.0e+00  0  0  0  0  0   0  0  0  0  0  -nan    -nan      0 0.00e+00    5 8.00e-04  0
SFBcastEnd            40 1.0   nan nan 0.00e+00 0.0 0.0e+00 0.0e+00 0.0e+00  1  0  0  0  0   8  0  0  0  0  -nan    -nan     40 6.40e-03    0 0.00e+00  0
SFReduceBegin         40 1.0   nan nan 0.00e+00 0.0 0.0e+00 0.0e+00 0.0e+00  0  0  0  0  0   4  0  0  0  0  -nan    -nan      0 0.00e+00   40 6.40e-03  0
SFReduceEnd           40 1.0   nan nan 8.00e+02 0.0 0.0e+00 0.0e+00 0.0e+00  0  0  0  0  0   1  0  0  0  0  -nan    -nan      5 8.00e-04    0 0.00e+00  100
SFPack               140 1.0   nan nan 0.00e+00 0.0 0.0e+00 0.0e+00 0.0e+00  0  0  0  0  0   0  0  0  0  0  -nan    -nan      0 0.00e+00    0 0.00e+00  0
SFUnpack             140 1.0   nan nan 8.00e+02 0.0 0.0e+00 0.0e+00 0.0e+00  0  0  0  0  0   0  0  0  0  0  -nan    -nan      0 0.00e+00    0 0.00e+00  100
VecDot                71 1.0   nan nan 1.77e+07 1.0 0.0e+00 0.0e+00 7.1e+01  1  1  0  0 36   6  6  0  0 45  -nan    -nan      0 0.00e+00    0 0.00e+00  100
VecMDot               20 1.0   nan nan 1.50e+07 1.0 0.0e+00 0.0e+00 2.0e+01  1  1  0  0 10  12  5  0  0 13  -nan    -nan      0 0.00e+00   20 4.80e-04  100
VecNorm               22 1.0   nan nan 5.50e+06 1.0 0.0e+00 0.0e+00 2.2e+01  0  0  0  0 11   3  2  0  0 14  -nan    -nan      0 0.00e+00    0 0.00e+00  100
VecScale              61 1.0   nan nan 2.63e+06 1.0 0.0e+00 0.0e+00 0.0e+00  0  0  0  0  0   0  1  0  0  0  -nan    -nan      0 0.00e+00    0 0.00e+00  100
VecCopy              185 1.0   nan nan 0.00e+00 0.0 0.0e+00 0.0e+00 0.0e+00  0  0  0  0  0   1  0  0  0  0  -nan    -nan      0 0.00e+00    0 0.00e+00  0
VecSet                54 1.0   nan nan 0.00e+00 0.0 0.0e+00 0.0e+00 0.0e+00  0  0  0  0  0   1  0  0  0  0  -nan    -nan      0 0.00e+00    0 0.00e+00  0
VecAXPY               61 1.0   nan nan 1.20e+03 0.0 0.0e+00 0.0e+00 0.0e+00  0  0  0  0  0   0  0  0  0  0  -nan    -nan      0 0.00e+00    0 0.00e+00  100
VecAYPX               40 1.0   nan nan 1.00e+07 1.0 0.0e+00 0.0e+00 0.0e+00  0  0  0  0  0   0  3  0  0  0  -nan    -nan      0 0.00e+00    0 0.00e+00  100
VecWAXPY              29 1.0   nan nan 7.25e+06 1.0 0.0e+00 0.0e+00 0.0e+00  1  0  0  0  0   7  3  0  0  0  -nan    -nan      0 0.00e+00    0 0.00e+00  100
VecPointwiseMult      20 1.0   nan nan 4.00e+02 0.0 0.0e+00 0.0e+00 0.0e+00  0  0  0  0  0   0  0  0  0  0  -nan    -nan      0 0.00e+00    0 0.00e+00  0
VecScatterBegin       60 1.0   nan nan 0.00e+00 0.0 2.2e+02 7.8e+00 1.0e+00  1  0 100 100  0  12  0 100 100  1  -nan    -nan      0 0.00e+00   26 2.10e-04  0
VecScatterEnd         60 1.0   nan nan 0.00e+00 0.0 0.0e+00 0.0e+00 0.0e+00  0  0  0  0  0   1  0  0  0  0  -nan    -nan     26 2.10e-04    0 0.00e+00  0
TaoSolve               1 1.0 6.2070e-02 1.0 2.88e+08 1.0 2.2e+02 7.8e+00 1.5e+02  8 11 100 100 76  92 100 100 100 96 37056    -nan     74 7.43e-03   91 7.89e-03  100
TaoObjGradEval        30 1.0   nan nan 2.44e+07 1.0 2.2e+02 7.8e+00 3.1e+01  2  1 100 100 16  25  8 100 100 19  -nan    -nan     26 2.10e-04   26 2.10e-04  100
TaoLSApply            21 1.0   nan nan 4.33e+07 1.0 2.0e+02 8.0e+00 7.9e+01  1  2 91 94 40  15 15 91 94 50  -nan    -nan     25 2.03e-04   25 2.03e-04  100
MatLMVMUpdate         21 1.0   nan nan 7.50e+07 1.0 0.0e+00 0.0e+00 2.6e+01  1  3  0  0 13  17 26  0  0 16  -nan    -nan      5 4.20e-04   40 3.68e-03  100
MatLMVMJ0Inv          21 1.0   nan nan 0.00e+00 0.0 0.0e+00 0.0e+00 0.0e+00  0  0  0  0  0   0  0  0  0  0  -nan    -nan      0 0.00e+00    0 0.00e+00  0
CDBFGSMatSolve        21 1.0   nan nan 1.55e+08 1.0 0.0e+00 0.0e+00 3.0e+00  3  6  0  0  2  32 54  0  0  2  -nan    -nan     42 6.80e-03   25 4.00e-03  100
CDBFGSJ0Inv           21 1.0   nan nan 0.00e+00 0.0 0.0e+00 0.0e+00 0.0e+00  0  0  0  0  0   0  0  0  0  0  -nan    -nan      0 0.00e+00    0 0.00e+00  0

--- Event Stage 2: Device Warmup

---------------------------------------------------------------------------------------------------------------------------------------------------------------

Object Type          Creations   Destructions. Reports information only for process 0.

--- Event Stage 0: Main Stage

           Container     7             13
              Matrix     6             14
  PetscDeviceContext     2              0
   Star Forest Graph     5              7
              Vector     9             27
           Index Set     2              2
                 Tao     1              1
       TaoLineSearch     1              1
       Krylov Solver     4              4
      Preconditioner     4              4
              Viewer     1              1
              Viewer     1              0

--- Event Stage 1: Rosenbrock solve

           Container     6              0
              Matrix     8              0
   Star Forest Graph     2              0
              Vector    18              0

--- Event Stage 2: Device Warmup

              Matrix     2              2
              Vector     2              2
         PetscRandom     2              2

--- Event Stage 3: PCMPI

========================================================================================================================
Average time to get PetscTime(): 3.51e-08
Average time for MPI_Barrier(): 2.4108e-06
Average time for zero size MPI_Send(): 1.17854e-05
#PETSc Option Table entries:
-log_view :/ccs/home/hsuh/bfgs_profiling/frontier_rosenbrock-mpi/rosenbrock_device_cdbfgs_inplace_dim_1000000_hist_20_np_8.log # (source: command line)
-mat_type aijhipsparse # (source: command line)
-n 1000000 # (source: command line)
-root_device_context_stream_type default_blocking # (source: command line)
-tao_gatol 1.e-3 # (source: command line)
-tao_lmvm_mat_lbfgs_type cd_inplace # (source: command line)
-tao_lmvm_mat_lmvm_hist_size 20 # (source: command line)
-tao_lmvm_mat_type lmvmcdbfgs # (source: command line)
-tao_smonitor 0 # (source: command line)
-tao_type lmvm # (source: command line)
#End of PETSc Option Table entries
Compiled without FORTRAN kernels
Compiled with full precision matrices (default)
sizeof(short) 2 sizeof(int) 4 sizeof(long) 8 sizeof(void*) 8 sizeof(PetscScalar) 8 sizeof(PetscInt) 4
Configure options: --with-debugging=0 --with-cc=cc --with-cxx=CC --with-fc=ftn COPTFLAGS="-O3 -march=native -ffp-contract=fast" CXXOPTFLAGS="-O3 -march=native -ffp-contract=fast" --CFLAGS="-std=c2x -Wno-constant-logical-operand" LIBS="-L/opt/cray/pe/mpich/8.1.23/gtl/lib -lmpi_gtl_hsa" --with-mpiexec="srun -N 1 --cpu-bind=threads --threads-per-core=1 -m block:cyclic" --with-hip --with-hipc=hipcc --download-random123 PETSC_ARCH=arch-olcf-frontier-opt
-----------------------------------------
Libraries compiled on 2023-09-26 19:25:42 on login06 
Machine characteristics: Linux-5.14.21-150400.24.46_12.0.83-cray_shasta_c-x86_64-with-glibc2.3.4
Using PETSc directory: /ccs/home/hsuh/petsc
Using PETSc arch: arch-olcf-frontier-opt
-----------------------------------------

Using C compiler: cc -std=c2x -Wno-constant-logical-operand -fPIC -O3 -march=native -ffp-contract=fast  
Using Fortran compiler: ftn  -fPIC -Wall -ffree-line-length-none -ffree-line-length-0 -Wno-lto-type-mismatch -Wno-unused-dummy-argument -g -O    
-----------------------------------------

Using include paths: -I/ccs/home/hsuh/petsc/include -I/ccs/home/hsuh/petsc/arch-olcf-frontier-opt/include -I/opt/rocm-5.4.0/include
-----------------------------------------

Using C linker: cc
Using Fortran linker: ftn
Using libraries: -Wl,-rpath,/ccs/home/hsuh/petsc/arch-olcf-frontier-opt/lib -L/ccs/home/hsuh/petsc/arch-olcf-frontier-opt/lib -lpetsc -Wl,-rpath,/opt/rocm-5.4.0/lib -L/opt/rocm-5.4.0/lib -Wl,-rpath,/opt/cray/pe/mpich/8.1.23/gtl/lib -L/opt/cray/pe/mpich/8.1.23/gtl/lib -Wl,-rpath,/opt/cray/pe/mpich/8.1.23/ofi/gnu/9.1/lib -L/opt/cray/pe/mpich/8.1.23/ofi/gnu/9.1/lib -Wl,-rpath,/opt/cray/pe/libsci/22.12.1.1/GNU/9.1/x86_64/lib -L/opt/cray/pe/libsci/22.12.1.1/GNU/9.1/x86_64/lib -Wl,-rpath,/sw/frontier/spack-envs/base/opt/cray-sles15-zen3/gcc-12.2.0/darshan-runtime-3.4.0-ftq5gccg3qjtyh5xeo2bz4wqkjayjhw3/lib -L/sw/frontier/spack-envs/base/opt/cray-sles15-zen3/gcc-12.2.0/darshan-runtime-3.4.0-ftq5gccg3qjtyh5xeo2bz4wqkjayjhw3/lib -Wl,-rpath,/opt/cray/pe/dsmml/0.2.2/dsmml/lib -L/opt/cray/pe/dsmml/0.2.2/dsmml/lib -Wl,-rpath,/opt/cray/pe/pmi/6.1.8/lib -L/opt/cray/pe/pmi/6.1.8/lib -Wl,-rpath,/opt/cray/xpmem/2.6.2-2.5_2.22__gd067c3f.shasta/lib64 -L/opt/cray/xpmem/2.6.2-2.5_2.22__gd067c3f.shasta/lib64 -Wl,-rpath,/opt/cray/pe/gcc/12.2.0/snos/lib/gcc/x86_64-suse-linux/12.2.0 -L/opt/cray/pe/gcc/12.2.0/snos/lib/gcc/x86_64-suse-linux/12.2.0 -Wl,-rpath,/opt/cray/pe/gcc/12.2.0/snos/lib64 -L/opt/cray/pe/gcc/12.2.0/snos/lib64 -Wl,-rpath,/opt/rocm-5.4.0/llvm/lib -L/opt/rocm-5.4.0/llvm/lib -Wl,-rpath,/opt/cray/pe/gcc/12.2.0/snos/lib -L/opt/cray/pe/gcc/12.2.0/snos/lib -lhipsparse -lhipblas -lhipsolver -lrocsparse -lrocsolver -lrocblas -lrocrand -lamdhip64 -lmpi_gtl_hsa -ldarshan -lz -ldl -lxpmem -lgfortran -lm -lmpifort_gnu_91 -lmpi_gnu_91 -lsci_gnu_82_mpi -lsci_gnu_82 -ldsmml -lpmi -lpmi2 -lgfortran -lquadmath -lpthread -lm -lgcc_s -lstdc++ -lquadmath -lmpi_gtl_hsa
-----------------------------------------

bfgs_profiling PETSc commit: v3.19.5-1161-g82d0f74204f
