****************************************************************************************************************************************************************
***                                WIDEN YOUR WINDOW TO 160 CHARACTERS.  Use 'enscript -r -fCourier9' to print this document                                 ***
****************************************************************************************************************************************************************

------------------------------------------------------------------ PETSc Performance Summary: ------------------------------------------------------------------

/autofs/nccs-svm1_home2/hsuh/petsc/arch-olcf-frontier-opt/tests/tao/unconstrained/tutorials/runrosenbrock4_2/../rosenbrock4 on a arch-olcf-frontier-opt named frontier04211 with 8 processors, by hsuh Sat Oct 14 11:06:54 2023
Using Petsc Development GIT revision: v3.19.5-1152-g5c30bd1f6eb  GIT Date: 2023-09-26 14:20:24 -0400

                         Max       Max/Min     Avg       Total
Time (sec):           1.690e+01     1.000   1.690e+01
Objects:              0.000e+00     0.000   0.000e+00
Flops:                2.830e+10     1.000   2.830e+10  2.264e+11
Flops/sec:            1.675e+09     1.000   1.675e+09  1.340e+10
Memory (bytes):       1.775e+10     1.000   1.775e+10  1.420e+11
MPI Msg Count:        3.200e+01     2.000   2.800e+01  2.240e+02
MPI Msg Len (bytes):  2.480e+02     2.000   7.750e+00  1.736e+03
MPI Reductions:       2.000e+02     1.000

Flop counting convention: 1 flop = 1 real number operation of type (multiply/divide/add/subtract)
                            e.g., VecAXPY() for real vectors of length N --> 2N flops
                            and VecAXPY() for complex vectors of length N --> 8N flops

Summary of Stages:   ----- Time ------  ----- Flop ------  --- Messages ---  -- Message Lengths --  -- Reductions --
                        Avg     %Total     Avg     %Total    Count   %Total     Avg         %Total    Count   %Total
 0:      Main Stage: 2.6912e+00  15.9%  0.0000e+00   0.0%  0.000e+00   0.0%  0.000e+00        0.0%  2.200e+01  11.0%
 1: Rosenbrock solve: 1.4206e+01  84.1%  2.2640e+11 100.0%  2.240e+02 100.0%  7.750e+00      100.0%  1.590e+02  79.5%

------------------------------------------------------------------------------------------------------------------------
See the 'Profiling' chapter of the users' manual for details on interpreting output.
Phase summary info:
   Count: number of times phase was executed
   Time and Flop: Max - maximum over all processors
                  Ratio - ratio of maximum to minimum over all processors
   Mess: number of messages sent
   AvgLen: average message length (bytes)
   Reduct: number of global reductions
   Global: entire computation
   Stage: stages of a computation. Set stages with PetscLogStagePush() and PetscLogStagePop().
      %T - percent time in this phase         %F - percent flop in this phase
      %M - percent messages in this phase     %L - percent message lengths in this phase
      %R - percent reductions in this phase
   Total Mflop/s: 10e-6 * (sum of flop over all processors)/(max time over all processors)
   GPU Mflop/s: 10e-6 * (sum of flop on GPU over all processors)/(max GPU time over all processors)
   CpuToGpu Count: total number of CPU to GPU copies per processor
   CpuToGpu Size (Mbytes): 10e-6 * (total size of CPU to GPU copies per processor)
   GpuToCpu Count: total number of GPU to CPU copies per processor
   GpuToCpu Size (Mbytes): 10e-6 * (total size of GPU to CPU copies per processor)
   GPU %F: percent flops on GPU in this event
------------------------------------------------------------------------------------------------------------------------
Event                Count      Time (sec)     Flop                              --- Global ---  --- Stage ----  Total   GPU    - CpuToGpu -   - GpuToCpu - GPU
                   Max Ratio  Max     Ratio   Max  Ratio  Mess   AvgLen  Reduct  %T %F %M %L %R  %T %F %M %L %R Mflop/s Mflop/s Count   Size   Count   Size  %F
---------------------------------------------------------------------------------------------------------------------------------------------------------------

--- Event Stage 0: Main Stage

BuildTwoSided          4 1.0 4.8895e-03 10.3 0.00e+00 0.0 0.0e+00 0.0e+00 4.0e+00  0  0  0  0  2   0  0  0  0 18     0       0      0 0.00e+00    0 0.00e+00  0
DCtxCreate             1 1.0 1.8386e-04 8.5 0.00e+00 0.0 0.0e+00 0.0e+00 0.0e+00  0  0  0  0  0   0  0  0  0  0     0       0      0 0.00e+00    0 0.00e+00  0
DCtxDestroy            1 1.0 3.4958e-05 1.3 0.00e+00 0.0 0.0e+00 0.0e+00 0.0e+00  0  0  0  0  0   0  0  0  0  0     0       0      0 0.00e+00    0 0.00e+00  0
DCtxSetUp              1 1.0 2.0924e-01 1.0 0.00e+00 0.0 0.0e+00 0.0e+00 0.0e+00  1  0  0  0  0   8  0  0  0  0     0       0      0 0.00e+00    0 0.00e+00  0
DCtxSetDevice          1 1.0 8.9170e-06 1.3 0.00e+00 0.0 0.0e+00 0.0e+00 0.0e+00  0  0  0  0  0   0  0  0  0  0     0       0      0 0.00e+00    0 0.00e+00  0
MatAssemblyBegin       2 1.0 8.5200e-07 1.4 0.00e+00 0.0 0.0e+00 0.0e+00 0.0e+00  0  0  0  0  0   0  0  0  0  0     0       0      0 0.00e+00    0 0.00e+00  0
MatAssemblyEnd         2 1.0 2.2159e-01 1.0 0.00e+00 0.0 0.0e+00 0.0e+00 0.0e+00  1  0  0  0  0   8  0  0  0  0     0       0      0 0.00e+00    0 0.00e+00  0
MatSetPreallCOO        1 1.0 1.5447e+00 1.0 0.00e+00 0.0 0.0e+00 0.0e+00 8.0e+00  9  0  0  0  4  57  0  0  0 36     0       0      0 0.00e+00    0 0.00e+00  0
SFSetGraph             5 1.0 2.4850e-06 1.6 0.00e+00 0.0 0.0e+00 0.0e+00 0.0e+00  0  0  0  0  0   0  0  0  0  0     0       0      0 0.00e+00    0 0.00e+00  0
SFSetUp                4 1.0 1.7979e-01 1.0 0.00e+00 0.0 0.0e+00 0.0e+00 4.0e+00  1  0  0  0  2   7  0  0  0 18     0       0      0 0.00e+00    0 0.00e+00  0
SFReduceBegin          2 1.0 1.7030e-06 1.2 0.00e+00 0.0 0.0e+00 0.0e+00 0.0e+00  0  0  0  0  0   0  0  0  0  0     0       0      0 0.00e+00    0 0.00e+00  0
SFReduceEnd            2 1.0 7.3100e-07 1.1 0.00e+00 0.0 0.0e+00 0.0e+00 0.0e+00  0  0  0  0  0   0  0  0  0  0     0       0      0 0.00e+00    0 0.00e+00  0
SFFetchOpBegin         1 1.0 2.2193e-05 1.8 0.00e+00 0.0 0.0e+00 0.0e+00 0.0e+00  0  0  0  0  0   0  0  0  0  0     0       0      0 0.00e+00    0 0.00e+00  0
SFFetchOpEnd           1 1.0 8.8270e-06 1.9 0.00e+00 0.0 0.0e+00 0.0e+00 0.0e+00  0  0  0  0  0   0  0  0  0  0     0       0      0 0.00e+00    0 0.00e+00  0
SFPack                 3 1.0 2.3100e-07 1.2 0.00e+00 0.0 0.0e+00 0.0e+00 0.0e+00  0  0  0  0  0   0  0  0  0  0     0       0      0 0.00e+00    0 0.00e+00  0
SFUnpack               4 1.0 6.2000e-07 1.7 0.00e+00 0.0 0.0e+00 0.0e+00 0.0e+00  0  0  0  0  0   0  0  0  0  0     0       0      0 0.00e+00    0 0.00e+00  0

--- Event Stage 1: Rosenbrock solve

BuildTwoSided          1 1.0 5.3056e-02 1148.4 0.00e+00 0.0 7.0e+00 4.0e+00 1.0e+00  0  0  3  2  0   0  0  3  2  1     0       0      0 0.00e+00    0 0.00e+00  0
Rbock_ObjGrad         30 1.0 1.1758e+00 1.1 2.25e+09 1.0 2.2e+02 7.8e+00 3.1e+01  7  8 100 100 16   8  8 100 100 19 15308       0      0 0.00e+00    0 0.00e+00  0
MatMultAdd            40 1.0 2.4052e+00 1.0 1.05e+10 1.0 0.0e+00 0.0e+00 3.0e+00 14 37  0  0  2  17 37  0  0  2 34924       0      0 0.00e+00    0 0.00e+00  0
MatMultTranspose      20 1.0 1.0882e+00 1.0 5.25e+09 1.0 0.0e+00 0.0e+00 3.0e+00  6 19  0  0  2   8 19  0  0  2 38596       0      0 0.00e+00    0 0.00e+00  0
MatMultTrAdd          20 1.0 1.0503e+00 1.0 5.25e+09 1.0 0.0e+00 0.0e+00 0.0e+00  6 19  0  0  0   7 19  0  0  0 39987       0      0 0.00e+00    0 0.00e+00  0
MatSolve              21 1.0 3.7878e+00 1.0 1.58e+10 1.0 0.0e+00 0.0e+00 3.0e+00 22 56  0  0  2  27 56  0  0  2 33265       0      0 0.00e+00    0 0.00e+00  0
MatConvert             2 1.0 2.2965e+00 1.0 0.00e+00 0.0 0.0e+00 0.0e+00 0.0e+00 13  0  0  0  0  16  0  0  0  0     0       0      0 0.00e+00    0 0.00e+00  0
MatZeroEntries         3 1.0 9.9093e-01 1.0 0.00e+00 0.0 0.0e+00 0.0e+00 0.0e+00  6  0  0  0  0   7  0  0  0  0     0       0      0 0.00e+00    0 0.00e+00  0
SFSetUp                3 1.0 5.3168e-02 332.9 0.00e+00 0.0 1.4e+01 4.0e+00 5.0e+00  0  0  6  3  2   0  0  6  3  3     0       0      0 0.00e+00    0 0.00e+00  0
SFBcastBegin          40 1.0 5.2548e-04 3.4 0.00e+00 0.0 0.0e+00 0.0e+00 0.0e+00  0  0  0  0  0   0  0  0  0  0     0       0      0 0.00e+00    0 0.00e+00  0
SFBcastEnd            40 1.0 4.5159e-02 879.6 0.00e+00 0.0 0.0e+00 0.0e+00 0.0e+00  0  0  0  0  0   0  0  0  0  0     0       0      0 0.00e+00    0 0.00e+00  0
SFReduceBegin         40 1.0 9.3167e-04 2.6 0.00e+00 0.0 0.0e+00 0.0e+00 0.0e+00  0  0  0  0  0   0  0  0  0  0     0       0      0 0.00e+00    0 0.00e+00  0
SFReduceEnd           40 1.0 4.3038e-02 315.1 2.00e+03 0.0 0.0e+00 0.0e+00 0.0e+00  0  0  0  0  0   0  0  0  0  0     0       0      0 0.00e+00    0 0.00e+00  0
SFPack               140 1.0 5.9490e-05 1.3 0.00e+00 0.0 0.0e+00 0.0e+00 0.0e+00  0  0  0  0  0   0  0  0  0  0     0       0      0 0.00e+00    0 0.00e+00  0
SFUnpack             140 1.0 5.2703e-05 1.7 2.00e+03 0.0 0.0e+00 0.0e+00 0.0e+00  0  0  0  0  0   0  0  0  0  0    38       0      0 0.00e+00    0 0.00e+00  0
VecDot                71 1.0 6.5499e-01 1.0 1.77e+09 1.0 0.0e+00 0.0e+00 7.1e+01  4  6  0  0 36   4  6  0  0 45 21680       0      0 0.00e+00    0 0.00e+00  0
VecMDot               20 1.0 3.6283e-01 1.1 1.50e+09 1.0 0.0e+00 0.0e+00 2.0e+01  2  5  0  0 10   2  5  0  0 13 33073       0      0 0.00e+00    0 0.00e+00  0
VecNorm               22 1.0 1.0024e-01 1.0 5.50e+08 1.0 0.0e+00 0.0e+00 2.2e+01  1  2  0  0 11   1  2  0  0 14 43897       0      0 0.00e+00    0 0.00e+00  0
VecScale              61 1.0 1.7552e-01 1.0 2.63e+08 1.0 0.0e+00 0.0e+00 0.0e+00  1  1  0  0  0   1  1  0  0  0 11964       0      0 0.00e+00    0 0.00e+00  0
VecCopy              206 1.0 1.6719e+00 1.0 0.00e+00 0.0 0.0e+00 0.0e+00 0.0e+00 10  0  0  0  0  12  0  0  0  0     0       0      0 0.00e+00    0 0.00e+00  0
VecSet                50 1.0 2.7069e-01 1.0 0.00e+00 0.0 0.0e+00 0.0e+00 0.0e+00  2  0  0  0  0   2  0  0  0  0     0       0      0 0.00e+00    0 0.00e+00  0
VecAXPY               61 1.0 1.8901e-01 1.0 3.00e+03 0.0 0.0e+00 0.0e+00 0.0e+00  1  0  0  0  0   1  0  0  0  0     0       0      0 0.00e+00    0 0.00e+00  0
VecAYPX               40 1.0 5.5339e-01 1.1 5.00e+08 1.0 0.0e+00 0.0e+00 0.0e+00  3  2  0  0  0   4  2  0  0  0  7228       0      0 0.00e+00    0 0.00e+00  0
VecWAXPY              29 1.0 5.2844e-01 1.0 4.62e+08 1.0 0.0e+00 0.0e+00 0.0e+00  3  2  0  0  0   4  2  0  0  0  7002       0      0 0.00e+00    0 0.00e+00  0
VecPointwiseMult      20 1.0 2.3012e-05 1.3 1.00e+03 0.0 0.0e+00 0.0e+00 0.0e+00  0  0  0  0  0   0  0  0  0  0    43       0      0 0.00e+00    0 0.00e+00  0
VecScatterBegin       60 1.0 4.5480e-01 1.1 0.00e+00 0.0 2.2e+02 7.8e+00 1.0e+00  3  0 100 100  0   3  0 100 100  1     0       0      0 0.00e+00    0 0.00e+00  0
VecScatterEnd         60 1.0 1.0414e-02 59.9 0.00e+00 0.0 0.0e+00 0.0e+00 0.0e+00  0  0  0  0  0   0  0  0  0  0     0       0      0 0.00e+00    0 0.00e+00  0
TaoSolve               1 1.0 9.6592e+00 1.0 2.83e+10 1.0 2.2e+02 7.8e+00 1.5e+02 57 100 100 100 76  68 100 100 100 96 23439       0      0 0.00e+00    0 0.00e+00  0
TaoObjGradEval        30 1.0 1.1759e+00 1.1 2.25e+09 1.0 2.2e+02 7.8e+00 3.1e+01  7  8 100 100 16   8  8 100 100 19 15308       0      0 0.00e+00    0 0.00e+00  0
TaoLSApply            21 1.0 2.2698e+00 1.0 3.89e+09 1.0 2.0e+02 8.0e+00 7.9e+01 13 14 91 94 40  16 14 91 94 50 13701       0      0 0.00e+00    0 0.00e+00  0
MatLMVMUpdate         21 1.0 2.7005e+00 1.0 7.25e+09 1.0 0.0e+00 0.0e+00 2.6e+01 16 26  0  0 13  19 26  0  0 16 21478       0      0 0.00e+00    0 0.00e+00  0
MatLMVMJ0Inv          21 1.0 1.8901e-01 1.0 0.00e+00 0.0 0.0e+00 0.0e+00 0.0e+00  1  0  0  0  0   1  0  0  0  0     0       0      0 0.00e+00    0 0.00e+00  0
CDBFGSMatSolve        21 1.0 3.7878e+00 1.0 1.58e+10 1.0 0.0e+00 0.0e+00 3.0e+00 22 56  0  0  2  27 56  0  0  2 33265       0      0 0.00e+00    0 0.00e+00  0
CDBFGSJ0Inv           21 1.0 1.8905e-01 1.0 0.00e+00 0.0 0.0e+00 0.0e+00 0.0e+00  1  0  0  0  0   1  0  0  0  0     0       0      0 0.00e+00    0 0.00e+00  0
---------------------------------------------------------------------------------------------------------------------------------------------------------------

Object Type          Creations   Destructions. Reports information only for process 0.

--- Event Stage 0: Main Stage

           Container     5              5
  PetscDeviceContext     1              0
              Matrix     6             14
   Star Forest Graph     5              7
              Vector     9             27
           Index Set     2              2
                 Tao     1              1
       TaoLineSearch     1              1
       Krylov Solver     4              4
      Preconditioner     4              4
              Viewer     1              1
              Viewer     1              0

--- Event Stage 1: Rosenbrock solve

              Matrix     8              0
   Star Forest Graph     2              0
              Vector    18              0

--- Event Stage 2: PCMPI

========================================================================================================================
Average time to get PetscTime(): 3.41e-08
Average time for MPI_Barrier(): 3.126e-06
Average time for zero size MPI_Send(): 1.52459e-05
#PETSc Option Table entries:
-log_view :/ccs/home/hsuh/bfgs_profiling/frontier_rosenbrock-mpi/rosenbrock_host_cdbfgs_inplace_dim_100000000_hist_50_np_8.log # (source: command line)
-mat_type aij # (source: command line)
-n 100000000 # (source: command line)
-root_device_context_stream_type default_blocking # (source: command line)
-tao_gatol 1.e-3 # (source: command line)
-tao_lmvm_mat_lbfgs_type cd_inplace # (source: command line)
-tao_lmvm_mat_lmvm_hist_size 50 # (source: command line)
-tao_lmvm_mat_type lmvmcdbfgs # (source: command line)
-tao_smonitor 0 # (source: command line)
-tao_type lmvm # (source: command line)
#End of PETSc Option Table entries
Compiled without FORTRAN kernels
Compiled with full precision matrices (default)
sizeof(short) 2 sizeof(int) 4 sizeof(long) 8 sizeof(void*) 8 sizeof(PetscScalar) 8 sizeof(PetscInt) 4
Configure options: --with-debugging=0 --with-cc=cc --with-cxx=CC --with-fc=ftn COPTFLAGS="-O3 -march=native -ffp-contract=fast" CXXOPTFLAGS="-O3 -march=native -ffp-contract=fast" --CFLAGS="-std=c2x -Wno-constant-logical-operand" LIBS="-L/opt/cray/pe/mpich/8.1.23/gtl/lib -lmpi_gtl_hsa" --with-mpiexec="srun -N 1 --cpu-bind=threads --threads-per-core=1 -m block:cyclic" --with-hip --with-hipc=hipcc --download-random123 PETSC_ARCH=arch-olcf-frontier-opt
-----------------------------------------
Libraries compiled on 2023-09-26 19:25:42 on login06 
Machine characteristics: Linux-5.14.21-150400.24.46_12.0.83-cray_shasta_c-x86_64-with-glibc2.3.4
Using PETSc directory: /ccs/home/hsuh/petsc
Using PETSc arch: arch-olcf-frontier-opt
-----------------------------------------

Using C compiler: cc -std=c2x -Wno-constant-logical-operand -fPIC -O3 -march=native -ffp-contract=fast  
Using Fortran compiler: ftn  -fPIC -Wall -ffree-line-length-none -ffree-line-length-0 -Wno-lto-type-mismatch -Wno-unused-dummy-argument -g -O    
-----------------------------------------

Using include paths: -I/ccs/home/hsuh/petsc/include -I/ccs/home/hsuh/petsc/arch-olcf-frontier-opt/include -I/opt/rocm-5.4.0/include
-----------------------------------------

Using C linker: cc
Using Fortran linker: ftn
Using libraries: -Wl,-rpath,/ccs/home/hsuh/petsc/arch-olcf-frontier-opt/lib -L/ccs/home/hsuh/petsc/arch-olcf-frontier-opt/lib -lpetsc -Wl,-rpath,/opt/rocm-5.4.0/lib -L/opt/rocm-5.4.0/lib -Wl,-rpath,/opt/cray/pe/mpich/8.1.23/gtl/lib -L/opt/cray/pe/mpich/8.1.23/gtl/lib -Wl,-rpath,/opt/cray/pe/mpich/8.1.23/ofi/gnu/9.1/lib -L/opt/cray/pe/mpich/8.1.23/ofi/gnu/9.1/lib -Wl,-rpath,/opt/cray/pe/libsci/22.12.1.1/GNU/9.1/x86_64/lib -L/opt/cray/pe/libsci/22.12.1.1/GNU/9.1/x86_64/lib -Wl,-rpath,/sw/frontier/spack-envs/base/opt/cray-sles15-zen3/gcc-12.2.0/darshan-runtime-3.4.0-ftq5gccg3qjtyh5xeo2bz4wqkjayjhw3/lib -L/sw/frontier/spack-envs/base/opt/cray-sles15-zen3/gcc-12.2.0/darshan-runtime-3.4.0-ftq5gccg3qjtyh5xeo2bz4wqkjayjhw3/lib -Wl,-rpath,/opt/cray/pe/dsmml/0.2.2/dsmml/lib -L/opt/cray/pe/dsmml/0.2.2/dsmml/lib -Wl,-rpath,/opt/cray/pe/pmi/6.1.8/lib -L/opt/cray/pe/pmi/6.1.8/lib -Wl,-rpath,/opt/cray/xpmem/2.6.2-2.5_2.22__gd067c3f.shasta/lib64 -L/opt/cray/xpmem/2.6.2-2.5_2.22__gd067c3f.shasta/lib64 -Wl,-rpath,/opt/cray/pe/gcc/12.2.0/snos/lib/gcc/x86_64-suse-linux/12.2.0 -L/opt/cray/pe/gcc/12.2.0/snos/lib/gcc/x86_64-suse-linux/12.2.0 -Wl,-rpath,/opt/cray/pe/gcc/12.2.0/snos/lib64 -L/opt/cray/pe/gcc/12.2.0/snos/lib64 -Wl,-rpath,/opt/rocm-5.4.0/llvm/lib -L/opt/rocm-5.4.0/llvm/lib -Wl,-rpath,/opt/cray/pe/gcc/12.2.0/snos/lib -L/opt/cray/pe/gcc/12.2.0/snos/lib -lhipsparse -lhipblas -lhipsolver -lrocsparse -lrocsolver -lrocblas -lrocrand -lamdhip64 -lmpi_gtl_hsa -ldarshan -lz -ldl -lxpmem -lgfortran -lm -lmpifort_gnu_91 -lmpi_gnu_91 -lsci_gnu_82_mpi -lsci_gnu_82 -ldsmml -lpmi -lpmi2 -lgfortran -lquadmath -lpthread -lm -lgcc_s -lstdc++ -lquadmath -lmpi_gtl_hsa
-----------------------------------------

bfgs_profiling PETSc commit: v3.19.5-1161-g82d0f74204f
