****************************************************************************************************************************************************************
***                                WIDEN YOUR WINDOW TO 160 CHARACTERS.  Use 'enscript -r -fCourier9' to print this document                                 ***
****************************************************************************************************************************************************************

------------------------------------------------------------------ PETSc Performance Summary: ------------------------------------------------------------------

/autofs/nccs-svm1_home2/hsuh/petsc/arch-olcf-frontier-opt/tests/tao/unconstrained/tutorials/runrosenbrock5_2/../rosenbrock5 on a arch-olcf-frontier-opt named frontier08826 with 1 processor, by hsuh Sat Oct 14 21:17:28 2023
Using Petsc Development GIT revision: v3.19.5-1152-g5c30bd1f6eb  GIT Date: 2023-09-26 14:20:24 -0400

                         Max       Max/Min     Avg       Total
Time (sec):           8.915e-01     1.000   8.915e-01
Objects:              0.000e+00     0.000   0.000e+00
Flops:                4.114e+09     1.000   4.114e+09  4.114e+09
Flops/sec:            4.615e+09     1.000   4.615e+09  4.615e+09
Memory (bytes):       9.225e+07     1.000   9.225e+07  9.225e+07
MPI Msg Count:        0.000e+00     0.000   0.000e+00  0.000e+00
MPI Msg Len (bytes):  0.000e+00     0.000   0.000e+00  0.000e+00
MPI Reductions:       0.000e+00     0.000

Flop counting convention: 1 flop = 1 real number operation of type (multiply/divide/add/subtract)
                            e.g., VecAXPY() for real vectors of length N --> 2N flops
                            and VecAXPY() for complex vectors of length N --> 8N flops

Summary of Stages:   ----- Time ------  ----- Flop ------  --- Messages ---  -- Message Lengths --  -- Reductions --
                        Avg     %Total     Avg     %Total    Count   %Total     Avg         %Total    Count   %Total
 0:      Main Stage: 4.7871e-01  53.7%  0.0000e+00   0.0%  0.000e+00   0.0%  0.000e+00        0.0%  0.000e+00   0.0%
 1: Rosenbrock solve: 5.5404e-02   6.2%  1.7800e+09  43.3%  0.000e+00   0.0%  0.000e+00        0.0%  0.000e+00   0.0%
 2:   Device Warmup: 0.0000e+00   0.0%  0.0000e+00   0.0%  0.000e+00   0.0%  0.000e+00        0.0%  0.000e+00   0.0%

------------------------------------------------------------------------------------------------------------------------
See the 'Profiling' chapter of the users' manual for details on interpreting output.
Phase summary info:
   Count: number of times phase was executed
   Time and Flop: Max - maximum over all processors
                  Ratio - ratio of maximum to minimum over all processors
   Mess: number of messages sent
   AvgLen: average message length (bytes)
   Reduct: number of global reductions
   Global: entire computation
   Stage: stages of a computation. Set stages with PetscLogStagePush() and PetscLogStagePop().
      %T - percent time in this phase         %F - percent flop in this phase
      %M - percent messages in this phase     %L - percent message lengths in this phase
      %R - percent reductions in this phase
   Total Mflop/s: 10e-6 * (sum of flop over all processors)/(max time over all processors)
   GPU Mflop/s: 10e-6 * (sum of flop on GPU over all processors)/(max GPU time over all processors)
   CpuToGpu Count: total number of CPU to GPU copies per processor
   CpuToGpu Size (Mbytes): 10e-6 * (total size of CPU to GPU copies per processor)
   GpuToCpu Count: total number of GPU to CPU copies per processor
   GpuToCpu Size (Mbytes): 10e-6 * (total size of GPU to CPU copies per processor)
   GPU %F: percent flops on GPU in this event
------------------------------------------------------------------------------------------------------------------------
Event                Count      Time (sec)     Flop                              --- Global ---  --- Stage ----  Total   GPU    - CpuToGpu -   - GpuToCpu - GPU
                   Max Ratio  Max     Ratio   Max  Ratio  Mess   AvgLen  Reduct  %T %F %M %L %R  %T %F %M %L %R Mflop/s Mflop/s Count   Size   Count   Size  %F
---------------------------------------------------------------------------------------------------------------------------------------------------------------

--- Event Stage 0: Main Stage

BuildTwoSided          1 1.0   nan nan 0.00e+00 0.0 0.0e+00 0.0e+00 0.0e+00  0  0  0  0  0   0  0  0  0  0  -nan    -nan      0 0.00e+00    0 0.00e+00  0
MatHIPSPARSCopyTo       1 1.0   nan nan 0.00e+00 0.0 0.0e+00 0.0e+00 0.0e+00 19  0  0  0  0  35  0  0  0  0  -nan    -nan      1 2.80e+01    0 0.00e+00  0
MatSetPreallCOO        1 1.0   nan nan 0.00e+00 0.0 0.0e+00 0.0e+00 0.0e+00 25  0  0  0  0  47  0  0  0  0  -nan    -nan      1 2.80e+01    0 0.00e+00  0
DCtxCreate             1 1.0   nan nan 0.00e+00 0.0 0.0e+00 0.0e+00 0.0e+00  0  0  0  0  0   0  0  0  0  0  -nan    -nan      0 0.00e+00    0 0.00e+00  0
DCtxDestroy            2 1.0   nan nan 0.00e+00 0.0 0.0e+00 0.0e+00 0.0e+00  0  0  0  0  0   0  0  0  0  0  -nan    -nan      0 0.00e+00    0 0.00e+00  0
DCtxSetUp              1 1.0   nan nan 0.00e+00 0.0 0.0e+00 0.0e+00 0.0e+00  1  0  0  0  0   1  0  0  0  0  -nan    -nan      0 0.00e+00    0 0.00e+00  0
DCtxSetDevice          1 1.0   nan nan 0.00e+00 0.0 0.0e+00 0.0e+00 0.0e+00  0  0  0  0  0   0  0  0  0  0  -nan    -nan      0 0.00e+00    0 0.00e+00  0
DCtxSync               3 1.0   nan nan 0.00e+00 0.0 0.0e+00 0.0e+00 0.0e+00  0  0  0  0  0   0  0  0  0  0  -nan    -nan      0 0.00e+00    0 0.00e+00  0
VecSet                 2 1.0   nan nan 0.00e+00 0.0 0.0e+00 0.0e+00 0.0e+00  0  0  0  0  0   0  0  0  0  0  -nan    -nan      0 0.00e+00    0 0.00e+00  0
SFSetGraph             2 1.0   nan nan 0.00e+00 0.0 0.0e+00 0.0e+00 0.0e+00  0  0  0  0  0   0  0  0  0  0  -nan    -nan      0 0.00e+00    0 0.00e+00  0
SFSetUp                1 1.0   nan nan 0.00e+00 0.0 0.0e+00 0.0e+00 0.0e+00  1  0  0  0  0   2  0  0  0  0  -nan    -nan      0 0.00e+00    0 0.00e+00  0

--- Event Stage 1: Rosenbrock solve

BuildTwoSided          1 1.0   nan nan 0.00e+00 0.0 0.0e+00 0.0e+00 0.0e+00  0  0  0  0  0   0  0  0  0  0  -nan    -nan      0 0.00e+00    0 0.00e+00  0
MatSolve              21 1.0   nan nan 1.24e+09 1.0 0.0e+00 0.0e+00 0.0e+00  2 30  0  0  0  34 70  0  0  0  -nan    -nan      0 0.00e+00    0 0.00e+00  100
DCtxSync              30 1.0   nan nan 0.00e+00 0.0 0.0e+00 0.0e+00 0.0e+00  0  0  0  0  0   1  0  0  0  0  -nan    -nan      0 0.00e+00    0 0.00e+00  0
VecDot               381 1.0   nan nan 7.62e+08 1.0 0.0e+00 0.0e+00 0.0e+00  3 19  0  0  0  41 43  0  0  0  -nan    -nan      0 0.00e+00    0 0.00e+00  100
VecDotNorm2           20 1.0   nan nan 0.00e+00 0.0 0.0e+00 0.0e+00 0.0e+00  0  0  0  0  0   4  0  0  0  0  -nan    -nan      0 0.00e+00    0 0.00e+00  0
VecNorm               22 1.0   nan nan 4.40e+07 1.0 0.0e+00 0.0e+00 0.0e+00  0  1  0  0  0   4  2  0  0  0  -nan    -nan      0 0.00e+00    0 0.00e+00  100
VecScale              21 1.0   nan nan 2.10e+07 1.0 0.0e+00 0.0e+00 0.0e+00  0  1  0  0  0   0  1  0  0  0  -nan    -nan      0 0.00e+00    0 0.00e+00  100
VecCopy              187 1.0   nan nan 0.00e+00 0.0 0.0e+00 0.0e+00 0.0e+00  0  0  0  0  0   2  0  0  0  0  -nan    -nan      0 0.00e+00    0 0.00e+00  0
VecSet                30 1.0   nan nan 0.00e+00 0.0 0.0e+00 0.0e+00 0.0e+00  0  0  0  0  0   1  0  0  0  0  -nan    -nan      0 0.00e+00    0 0.00e+00  0
VecAXPY              310 1.0   nan nan 6.20e+08 1.0 0.0e+00 0.0e+00 0.0e+00  0 15  0  0  0   1 35  0  0  0  -nan    -nan      0 0.00e+00    0 0.00e+00  100
VecAYPX               40 1.0   nan nan 8.00e+07 1.0 0.0e+00 0.0e+00 0.0e+00  0  2  0  0  0   0  4  0  0  0  -nan    -nan      0 0.00e+00    0 0.00e+00  100
VecWAXPY              29 1.0   nan nan 5.80e+07 1.0 0.0e+00 0.0e+00 0.0e+00  0  1  0  0  0   8  3  0  0  0  -nan    -nan      0 0.00e+00    0 0.00e+00  100
VecScatterBegin       60 1.0   nan nan 0.00e+00 0.0 0.0e+00 0.0e+00 0.0e+00  1  0  0  0  0  12  0  0  0  0  -nan    -nan      0 0.00e+00    0 0.00e+00  0
VecScatterEnd         60 1.0   nan nan 0.00e+00 0.0 0.0e+00 0.0e+00 0.0e+00  0  0  0  0  0   0  0  0  0  0  -nan    -nan      0 0.00e+00    0 0.00e+00  0
SFSetUp                1 1.0   nan nan 0.00e+00 0.0 0.0e+00 0.0e+00 0.0e+00  0  0  0  0  0   0  0  0  0  0  -nan    -nan      0 0.00e+00    0 0.00e+00  0
SFPack                60 1.0   nan nan 0.00e+00 0.0 0.0e+00 0.0e+00 0.0e+00  0  0  0  0  0   0  0  0  0  0  -nan    -nan      0 0.00e+00    0 0.00e+00  0
SFUnpack              60 1.0   nan nan 0.00e+00 0.0 0.0e+00 0.0e+00 0.0e+00  0  0  0  0  0   0  0  0  0  0  -nan    -nan      0 0.00e+00    0 0.00e+00  0
TaoSolve               1 1.0 5.5119e-02 1.0 1.78e+09 1.0 0.0e+00 0.0e+00 0.0e+00  6 43  0  0  0  99 100  0  0  0 32294    -nan      0 0.00e+00    0 0.00e+00  100
TaoObjGradEval        30 1.0   nan nan 1.95e+08 1.0 0.0e+00 0.0e+00 0.0e+00  2  5  0  0  0  27 11  0  0  0  -nan    -nan      0 0.00e+00    0 0.00e+00  100
TaoLSApply            21 1.0   nan nan 3.46e+08 1.0 0.0e+00 0.0e+00 0.0e+00  1  8  0  0  0  19 19  0  0  0  -nan    -nan      0 0.00e+00    0 0.00e+00  100
MatLMVMUpdate         21 1.0   nan nan 8.00e+07 1.0 0.0e+00 0.0e+00 0.0e+00  0  2  0  0  0   6  4  0  0  0  -nan    -nan      0 0.00e+00    0 0.00e+00  100
MatLMVMJ0Inv          21 1.0   nan nan 0.00e+00 0.0 0.0e+00 0.0e+00 0.0e+00  0  0  0  0  0   0  0  0  0  0  -nan    -nan      0 0.00e+00    0 0.00e+00  0

--- Event Stage 2: Device Warmup

---------------------------------------------------------------------------------------------------------------------------------------------------------------

Object Type          Creations   Destructions. Reports information only for process 0.

--- Event Stage 0: Main Stage

           Container     6              6
              Matrix     3              3
  PetscDeviceContext     1              0
              Vector     6             44
   Star Forest Graph     2              2
                 Tao     1              1
       TaoLineSearch     1              1
       Krylov Solver     2              2
      Preconditioner     2              2
              Viewer     1              1
              Viewer     1              0

--- Event Stage 1: Rosenbrock solve

              Vector    38              0

--- Event Stage 2: Device Warmup

              Matrix     2              2
  PetscDeviceContext     1              0
              Vector     2              2
         PetscRandom     2              2

--- Event Stage 3: PCMPI

========================================================================================================================
Average time to get PetscTime(): 3.1e-08
#PETSc Option Table entries:
-log_view :/ccs/home/hsuh/bfgs_profiling/frontier_rosenbrock/rosenbrock_device_bfgs_reorder_dim_1000000_hist_10_np_1.log # (source: command line)
-mat_type aijhipsparse # (source: command line)
-n 1000000 # (source: command line)
-root_device_context_stream_type default_blocking # (source: command line)
-tao_gatol 1.e-3 # (source: command line)
-tao_lmvm_mat_lmvm_hist_size 10 # (source: command line)
-tao_lmvm_mat_lmvm_scale_type none # (source: command line)
-tao_lmvm_mat_type lmvmbfgs # (source: command line)
-tao_smonitor 0 # (source: command line)
-tao_type lmvm # (source: command line)
#End of PETSc Option Table entries
Compiled without FORTRAN kernels
Compiled with full precision matrices (default)
sizeof(short) 2 sizeof(int) 4 sizeof(long) 8 sizeof(void*) 8 sizeof(PetscScalar) 8 sizeof(PetscInt) 4
Configure options: --with-debugging=0 --with-cc=cc --with-cxx=CC --with-fc=ftn COPTFLAGS="-O3 -march=native -ffp-contract=fast" CXXOPTFLAGS="-O3 -march=native -ffp-contract=fast" --CFLAGS="-std=c2x -Wno-constant-logical-operand" LIBS="-L/opt/cray/pe/mpich/8.1.23/gtl/lib -lmpi_gtl_hsa" --with-mpiexec="srun -N 1 --cpu-bind=threads --threads-per-core=1 -m block:cyclic" --with-hip --with-hipc=hipcc --download-random123 PETSC_ARCH=arch-olcf-frontier-opt
-----------------------------------------
Libraries compiled on 2023-09-26 19:25:42 on login06 
Machine characteristics: Linux-5.14.21-150400.24.46_12.0.83-cray_shasta_c-x86_64-with-glibc2.3.4
Using PETSc directory: /ccs/home/hsuh/petsc
Using PETSc arch: arch-olcf-frontier-opt
-----------------------------------------

Using C compiler: cc -std=c2x -Wno-constant-logical-operand -fPIC -O3 -march=native -ffp-contract=fast  
Using Fortran compiler: ftn  -fPIC -Wall -ffree-line-length-none -ffree-line-length-0 -Wno-lto-type-mismatch -Wno-unused-dummy-argument -g -O    
-----------------------------------------

Using include paths: -I/ccs/home/hsuh/petsc/include -I/ccs/home/hsuh/petsc/arch-olcf-frontier-opt/include -I/opt/rocm-5.4.0/include
-----------------------------------------

Using C linker: cc
Using Fortran linker: ftn
Using libraries: -Wl,-rpath,/ccs/home/hsuh/petsc/arch-olcf-frontier-opt/lib -L/ccs/home/hsuh/petsc/arch-olcf-frontier-opt/lib -lpetsc -Wl,-rpath,/opt/rocm-5.4.0/lib -L/opt/rocm-5.4.0/lib -Wl,-rpath,/opt/cray/pe/mpich/8.1.23/gtl/lib -L/opt/cray/pe/mpich/8.1.23/gtl/lib -Wl,-rpath,/opt/cray/pe/mpich/8.1.23/ofi/gnu/9.1/lib -L/opt/cray/pe/mpich/8.1.23/ofi/gnu/9.1/lib -Wl,-rpath,/opt/cray/pe/libsci/22.12.1.1/GNU/9.1/x86_64/lib -L/opt/cray/pe/libsci/22.12.1.1/GNU/9.1/x86_64/lib -Wl,-rpath,/sw/frontier/spack-envs/base/opt/cray-sles15-zen3/gcc-12.2.0/darshan-runtime-3.4.0-ftq5gccg3qjtyh5xeo2bz4wqkjayjhw3/lib -L/sw/frontier/spack-envs/base/opt/cray-sles15-zen3/gcc-12.2.0/darshan-runtime-3.4.0-ftq5gccg3qjtyh5xeo2bz4wqkjayjhw3/lib -Wl,-rpath,/opt/cray/pe/dsmml/0.2.2/dsmml/lib -L/opt/cray/pe/dsmml/0.2.2/dsmml/lib -Wl,-rpath,/opt/cray/pe/pmi/6.1.8/lib -L/opt/cray/pe/pmi/6.1.8/lib -Wl,-rpath,/opt/cray/xpmem/2.6.2-2.5_2.22__gd067c3f.shasta/lib64 -L/opt/cray/xpmem/2.6.2-2.5_2.22__gd067c3f.shasta/lib64 -Wl,-rpath,/opt/cray/pe/gcc/12.2.0/snos/lib/gcc/x86_64-suse-linux/12.2.0 -L/opt/cray/pe/gcc/12.2.0/snos/lib/gcc/x86_64-suse-linux/12.2.0 -Wl,-rpath,/opt/cray/pe/gcc/12.2.0/snos/lib64 -L/opt/cray/pe/gcc/12.2.0/snos/lib64 -Wl,-rpath,/opt/rocm-5.4.0/llvm/lib -L/opt/rocm-5.4.0/llvm/lib -Wl,-rpath,/opt/cray/pe/gcc/12.2.0/snos/lib -L/opt/cray/pe/gcc/12.2.0/snos/lib -lhipsparse -lhipblas -lhipsolver -lrocsparse -lrocsolver -lrocblas -lrocrand -lamdhip64 -lmpi_gtl_hsa -ldarshan -lz -ldl -lxpmem -lgfortran -lm -lmpifort_gnu_91 -lmpi_gnu_91 -lsci_gnu_82_mpi -lsci_gnu_82 -ldsmml -lpmi -lpmi2 -lgfortran -lquadmath -lpthread -lm -lgcc_s -lstdc++ -lquadmath -lmpi_gtl_hsa
-----------------------------------------

bfgs_profiling PETSc commit: v3.19.5-1161-g82d0f74204f
