****************************************************************************************************************************************************************
***                                WIDEN YOUR WINDOW TO 160 CHARACTERS.  Use 'enscript -r -fCourier9' to print this document                                 ***
****************************************************************************************************************************************************************

------------------------------------------------------------------ PETSc Performance Summary: ------------------------------------------------------------------

../rosenbrock4cu on a arch-alcf-polaris named x3005c0s13b0n0 with 1 processor, by hsuh Wed Oct  4 17:18:15 2023
Using Petsc Development GIT revision: v3.19.5-1158-ga4141c38af3  GIT Date: 2023-10-02 13:14:06 -0500

                         Max       Max/Min     Avg       Total
Time (sec):           1.011e+00     1.000   1.011e+00
Objects:              0.000e+00     0.000   0.000e+00
Flops:                4.214e+09     1.000   4.214e+09  4.214e+09
Flops/sec:            4.167e+09     1.000   4.167e+09  4.167e+09
Memory (bytes):       9.225e+07     1.000   9.225e+07  9.225e+07
MPI Msg Count:        0.000e+00     0.000   0.000e+00  0.000e+00
MPI Msg Len (bytes):  0.000e+00     0.000   0.000e+00  0.000e+00
MPI Reductions:       0.000e+00     0.000

Flop counting convention: 1 flop = 1 real number operation of type (multiply/divide/add/subtract)
                            e.g., VecAXPY() for real vectors of length N --> 2N flops
                            and VecAXPY() for complex vectors of length N --> 8N flops

Summary of Stages:   ----- Time ------  ----- Flop ------  --- Messages ---  -- Message Lengths --  -- Reductions --
                        Avg     %Total     Avg     %Total    Count   %Total     Avg         %Total    Count   %Total
 0:      Main Stage: 4.2228e-01  41.8%  0.0000e+00   0.0%  0.000e+00   0.0%  0.000e+00        0.0%  0.000e+00   0.0%
 1: Rosenbrock solve: 3.2258e-02   3.2%  1.8800e+09  44.6%  0.000e+00   0.0%  0.000e+00        0.0%  0.000e+00   0.0%
 2:   Device Warmup: 0.0000e+00   0.0%  0.0000e+00   0.0%  0.000e+00   0.0%  0.000e+00        0.0%  0.000e+00   0.0%

------------------------------------------------------------------------------------------------------------------------
See the 'Profiling' chapter of the users' manual for details on interpreting output.
Phase summary info:
   Count: number of times phase was executed
   Time and Flop: Max - maximum over all processors
                  Ratio - ratio of maximum to minimum over all processors
   Mess: number of messages sent
   AvgLen: average message length (bytes)
   Reduct: number of global reductions
   Global: entire computation
   Stage: stages of a computation. Set stages with PetscLogStagePush() and PetscLogStagePop().
      %T - percent time in this phase         %F - percent flop in this phase
      %M - percent messages in this phase     %L - percent message lengths in this phase
      %R - percent reductions in this phase
   Total Mflop/s: 10e-6 * (sum of flop over all processors)/(max time over all processors)
   GPU Mflop/s: 10e-6 * (sum of flop on GPU over all processors)/(max GPU time over all processors)
   CpuToGpu Count: total number of CPU to GPU copies per processor
   CpuToGpu Size (Mbytes): 10e-6 * (total size of CPU to GPU copies per processor)
   GpuToCpu Count: total number of GPU to CPU copies per processor
   GpuToCpu Size (Mbytes): 10e-6 * (total size of GPU to CPU copies per processor)
   GPU %F: percent flops on GPU in this event
------------------------------------------------------------------------------------------------------------------------
Event                Count      Time (sec)     Flop                              --- Global ---  --- Stage ----  Total   GPU    - CpuToGpu -   - GpuToCpu - GPU
                   Max Ratio  Max     Ratio   Max  Ratio  Mess   AvgLen  Reduct  %T %F %M %L %R  %T %F %M %L %R Mflop/s Mflop/s Count   Size   Count   Size  %F
---------------------------------------------------------------------------------------------------------------------------------------------------------------

--- Event Stage 0: Main Stage

BuildTwoSided          1 1.0   nan nan 0.00e+00 0.0 0.0e+00 0.0e+00 0.0e+00  0  0  0  0  0   0  0  0  0  0  -nan    -nan      0 0.00e+00    0 0.00e+00  0
DCtxCreate             1 1.0   nan nan 0.00e+00 0.0 0.0e+00 0.0e+00 0.0e+00  0  0  0  0  0   0  0  0  0  0  -nan    -nan      0 0.00e+00    0 0.00e+00  0
DCtxDestroy            2 1.0   nan nan 0.00e+00 0.0 0.0e+00 0.0e+00 0.0e+00  0  0  0  0  0   0  0  0  0  0  -nan    -nan      0 0.00e+00    0 0.00e+00  0
DCtxSetUp              1 1.0   nan nan 0.00e+00 0.0 0.0e+00 0.0e+00 0.0e+00  0  0  0  0  0   0  0  0  0  0  -nan    -nan      0 0.00e+00    0 0.00e+00  0
DCtxSetDevice          1 1.0   nan nan 0.00e+00 0.0 0.0e+00 0.0e+00 0.0e+00  0  0  0  0  0   0  0  0  0  0  -nan    -nan      0 0.00e+00    0 0.00e+00  0
DCtxSync               3 1.0   nan nan 0.00e+00 0.0 0.0e+00 0.0e+00 0.0e+00  0  0  0  0  0   0  0  0  0  0  -nan    -nan      0 0.00e+00    0 0.00e+00  0
MatCUSPARSCopyTo       1 1.0   nan nan 0.00e+00 0.0 0.0e+00 0.0e+00 0.0e+00  0  0  0  0  0   1  0  0  0  0  -nan    -nan      1 2.80e+01    0 0.00e+00  0
MatSetPreallCOO        1 1.0   nan nan 0.00e+00 0.0 0.0e+00 0.0e+00 0.0e+00  4  0  0  0  0  11  0  0  0  0  -nan    -nan      1 2.80e+01    0 0.00e+00  0
VecSet                 2 1.0   nan nan 0.00e+00 0.0 0.0e+00 0.0e+00 0.0e+00  0  0  0  0  0   0  0  0  0  0  -nan    -nan      0 0.00e+00    0 0.00e+00  0
SFSetGraph             2 1.0   nan nan 0.00e+00 0.0 0.0e+00 0.0e+00 0.0e+00  0  0  0  0  0   0  0  0  0  0  -nan    -nan      0 0.00e+00    0 0.00e+00  0
SFSetUp                1 1.0   nan nan 0.00e+00 0.0 0.0e+00 0.0e+00 0.0e+00  1  0  0  0  0   3  0  0  0  0  -nan    -nan      0 0.00e+00    0 0.00e+00  0

--- Event Stage 1: Rosenbrock solve

BuildTwoSided          1 1.0   nan nan 0.00e+00 0.0 0.0e+00 0.0e+00 0.0e+00  0  0  0  0  0   0  0  0  0  0  -nan    -nan      0 0.00e+00    0 0.00e+00  0
Rbock_ObjGrad         30 1.0   nan nan 1.95e+08 1.0 0.0e+00 0.0e+00 0.0e+00  0  5  0  0  0  13 10  0  0  0  -nan    -nan      0 0.00e+00    0 0.00e+00  100
DCtxFork              20 1.0   nan nan 0.00e+00 0.0 0.0e+00 0.0e+00 0.0e+00  0  0  0  0  0   0  0  0  0  0  -nan    -nan      0 0.00e+00    0 0.00e+00  0
DCtxJoin              20 1.0   nan nan 0.00e+00 0.0 0.0e+00 0.0e+00 0.0e+00  0  0  0  0  0   0  0  0  0  0  -nan    -nan      0 0.00e+00    0 0.00e+00  0
DCtxSync              55 1.0   nan nan 0.00e+00 0.0 0.0e+00 0.0e+00 0.0e+00  0  0  0  0  0   2  0  0  0  0  -nan    -nan      0 0.00e+00    0 0.00e+00  0
DCtxMark             296 1.0   nan nan 0.00e+00 0.0 0.0e+00 0.0e+00 0.0e+00  0  0  0  0  0   1  0  0  0  0  -nan    -nan      0 0.00e+00    0 0.00e+00  0
MatMultAdd            40 1.0   nan nan 6.20e+08 1.0 0.0e+00 0.0e+00 0.0e+00  0 15  0  0  0   1 33  0  0  0  -nan    -nan      0 0.00e+00    0 0.00e+00  100
MatMultTranspose      20 1.0   nan nan 2.90e+08 1.0 0.0e+00 0.0e+00 0.0e+00  0  7  0  0  0   1 15  0  0  0  -nan    -nan      0 0.00e+00    0 0.00e+00  100
MatMultTrAdd          20 1.0   nan nan 3.10e+08 1.0 0.0e+00 0.0e+00 0.0e+00  0  7  0  0  0   1 16  0  0  0  -nan    -nan      0 0.00e+00    0 0.00e+00  100
MatSolve              21 1.0   nan nan 9.30e+08 1.0 0.0e+00 0.0e+00 0.0e+00  1 22  0  0  0  31 49  0  0  0  -nan    -nan      0 0.00e+00    0 0.00e+00  100
MatCopy               20 1.0   nan nan 0.00e+00 0.0 0.0e+00 0.0e+00 0.0e+00  0  0  0  0  0   0  0  0  0  0  -nan    -nan      0 0.00e+00    0 0.00e+00  0
MatConvert             3 1.0   nan nan 0.00e+00 0.0 0.0e+00 0.0e+00 0.0e+00  0  0  0  0  0   2  0  0  0  0  -nan    -nan      0 0.00e+00    0 0.00e+00  0
MatZeroEntries         3 1.0   nan nan 0.00e+00 0.0 0.0e+00 0.0e+00 0.0e+00  0  0  0  0  0   0  0  0  0  0  -nan    -nan      0 0.00e+00    0 0.00e+00  0
VecDot                71 1.0   nan nan 1.42e+08 1.0 0.0e+00 0.0e+00 0.0e+00  1  3  0  0  0  28  8  0  0  0  -nan    -nan      0 0.00e+00    0 0.00e+00  100
VecMDot               20 1.0   nan nan 1.20e+08 1.0 0.0e+00 0.0e+00 0.0e+00  0  3  0  0  0   6  6  0  0  0  -nan    -nan      0 0.00e+00   20 4.80e-04  100
VecNorm               22 1.0   nan nan 4.40e+07 1.0 0.0e+00 0.0e+00 0.0e+00  0  1  0  0  0   5  2  0  0  0  -nan    -nan      0 0.00e+00    0 0.00e+00  100
VecScale              61 1.0   nan nan 2.10e+07 1.0 0.0e+00 0.0e+00 0.0e+00  0  0  0  0  0   1  1  0  0  0  -nan    -nan      0 0.00e+00    0 0.00e+00  100
VecCopy              259 1.0   nan nan 0.00e+00 0.0 0.0e+00 0.0e+00 0.0e+00  0  0  0  0  0   4  0  0  0  0  -nan    -nan      0 0.00e+00    0 0.00e+00  0
VecSet                35 1.0   nan nan 0.00e+00 0.0 0.0e+00 0.0e+00 0.0e+00  0  0  0  0  0   3  0  0  0  0  -nan    -nan      0 0.00e+00    0 0.00e+00  0
VecAXPY               61 1.0   nan nan 6.00e+02 1.0 0.0e+00 0.0e+00 0.0e+00  0  0  0  0  0   1  0  0  0  0  -nan    -nan      0 0.00e+00    0 0.00e+00  100
VecAYPX               40 1.0   nan nan 8.00e+07 1.0 0.0e+00 0.0e+00 0.0e+00  0  2  0  0  0   1  4  0  0  0  -nan    -nan      0 0.00e+00    0 0.00e+00  100
VecWAXPY              29 1.0   nan nan 5.80e+07 1.0 0.0e+00 0.0e+00 0.0e+00  0  1  0  0  0   1  3  0  0  0  -nan    -nan      0 0.00e+00    0 0.00e+00  100
VecPointwiseMult      20 1.0   nan nan 2.00e+02 1.0 0.0e+00 0.0e+00 0.0e+00  1  0  0  0  0  24  0  0  0  0  -nan    -nan      0 0.00e+00    0 0.00e+00  0
VecScatterBegin       60 1.0   nan nan 0.00e+00 0.0 0.0e+00 0.0e+00 0.0e+00  0  0  0  0  0   3  0  0  0  0  -nan    -nan      0 0.00e+00    0 0.00e+00  0
VecScatterEnd         60 1.0   nan nan 0.00e+00 0.0 0.0e+00 0.0e+00 0.0e+00  0  0  0  0  0   1  0  0  0  0  -nan    -nan      0 0.00e+00    0 0.00e+00  0
SFSetUp                1 1.0   nan nan 0.00e+00 0.0 0.0e+00 0.0e+00 0.0e+00  0  0  0  0  0   0  0  0  0  0  -nan    -nan      0 0.00e+00    0 0.00e+00  0
SFPack                60 1.0   nan nan 0.00e+00 0.0 0.0e+00 0.0e+00 0.0e+00  0  0  0  0  0   0  0  0  0  0  -nan    -nan      0 0.00e+00    0 0.00e+00  0
SFUnpack              60 1.0   nan nan 0.00e+00 0.0 0.0e+00 0.0e+00 0.0e+00  0  0  0  0  0   0  0  0  0  0  -nan    -nan      0 0.00e+00    0 0.00e+00  0
TaoSolve               1 1.0 3.1020e-02 1.0 1.88e+09 1.0 0.0e+00 0.0e+00 0.0e+00  3 45  0  0  0  96 100  0  0  0 60606    -nan     20 1.60e-04   20 4.80e-04  100
TaoObjGradEval        30 1.0   nan nan 1.95e+08 1.0 0.0e+00 0.0e+00 0.0e+00  0  5  0  0  0  13 10  0  0  0  -nan    -nan      0 0.00e+00    0 0.00e+00  100
TaoLSApply            21 1.0   nan nan 3.46e+08 1.0 0.0e+00 0.0e+00 0.0e+00  1  8  0  0  0  19 18  0  0  0  -nan    -nan      0 0.00e+00    0 0.00e+00  100
MatLMVMUpdate         21 1.0   nan nan 4.90e+08 1.0 0.0e+00 0.0e+00 0.0e+00  0 12  0  0  0  14 26  0  0  0  -nan    -nan     20 1.60e-04   20 4.80e-04  100
MatLMVMJ0Inv          21 1.0   nan nan 0.00e+00 0.0 0.0e+00 0.0e+00 0.0e+00  0  0  0  0  0   0  0  0  0  0  -nan    -nan      0 0.00e+00    0 0.00e+00  0
CDBFGSMatSolve        21 1.0   nan nan 9.30e+08 1.0 0.0e+00 0.0e+00 0.0e+00  1 22  0  0  0  31 49  0  0  0  -nan    -nan      0 0.00e+00    0 0.00e+00  100
CDBFGSJ0Inv           21 1.0   nan nan 0.00e+00 0.0 0.0e+00 0.0e+00 0.0e+00  0  0  0  0  0   1  0  0  0  0  -nan    -nan      0 0.00e+00    0 0.00e+00  0

--- Event Stage 2: Device Warmup

---------------------------------------------------------------------------------------------------------------------------------------------------------------

Object Type          Creations   Destructions. Reports information only for process 0.

--- Event Stage 0: Main Stage

           Container     7             13
  PetscDeviceContext     1              0
              Matrix     4             11
              Vector     6             24
   Star Forest Graph     2              2
                 Tao     1              1
       TaoLineSearch     1              1
       Krylov Solver     4              4
      Preconditioner     4              4
              Viewer     1              1
              Viewer     1              0

--- Event Stage 1: Rosenbrock solve

           Container     6              0
              Matrix     7              0
              Vector    18              0

--- Event Stage 2: Device Warmup

  PetscDeviceContext     1              0
              Matrix     2              2
              Vector     2              2
         PetscRandom     2              2

--- Event Stage 3: PCMPI

========================================================================================================================
Average time to get PetscTime(): 8.73e-07
#PETSc Option Table entries:
-log_view :/home/hsuh/bfgs_profiling/polaris_rosenbrock/rosenbrock_device_cdbfgs_reorder_dim_1000000_hist_10.log # (source: command line)
-mat_type aijcusparse # (source: command line)
-n 1000000 # (source: command line)
-root_device_context_stream_type default_blocking # (source: command line)
-tao_gatol 1.e-3 # (source: command line)
-tao_lmvm_mat_lbfgs_type cd_reorder # (source: command line)
-tao_lmvm_mat_lmvm_hist_size 10 # (source: command line)
-tao_lmvm_mat_type lmvmcdbfgs # (source: command line)
-tao_smonitor 0 # (source: command line)
-tao_type lmvm # (source: command line)
#End of PETSc Option Table entries
Compiled without FORTRAN kernels
Compiled with full precision matrices (default)
sizeof(short) 2 sizeof(int) 4 sizeof(long) 8 sizeof(void*) 8 sizeof(PetscScalar) 8 sizeof(PetscInt) 4
Configure options: --with-cc=cc --with-cxx=CC --with-fc=ftn --with-debugging=0 --with-cuda --with-cudac=nvcc --with-cuda-arch=80 --download-random123 --download-sowing --with-mpiexec="mpiexec --cpu-bind list:24:16:8:0:28:20:12:4" COPTFLAGS="-O3 -march=native -ffp-contract=fast" CXXOPTFLAGS="-O3 -march=native -ffp-contract=fast" --force PETSC_ARCH=arch-alcf-polaris
-----------------------------------------
Libraries compiled on 2023-10-03 17:17:36 on polaris-login-04 
Machine characteristics: Linux-5.3.18-150300.59.115-default-x86_64-with-glibc2.3.4
Using PETSc directory: /home/hsuh/petsc
Using PETSc arch: arch-alcf-polaris
-----------------------------------------

Using C compiler: cc  -fPIC -Wall -Wwrite-strings -Wno-unknown-pragmas -Wno-lto-type-mismatch -Wno-stringop-overflow -fstack-protector -fvisibility=hidden -O3 -march=native -ffp-contract=fast  
Using Fortran compiler: ftn  -fPIC -Wall -ffree-line-length-none -ffree-line-length-0 -Wno-lto-type-mismatch -Wno-unused-dummy-argument -g -O    
-----------------------------------------

Using include paths: -I/home/hsuh/petsc/include -I/home/hsuh/petsc/arch-alcf-polaris/include -I/soft/compilers/cudatoolkit/cuda-11.8.0/include
-----------------------------------------

Using C linker: cc
Using Fortran linker: ftn
Using libraries: -Wl,-rpath,/home/hsuh/petsc/arch-alcf-polaris/lib -L/home/hsuh/petsc/arch-alcf-polaris/lib -lpetsc -Wl,-rpath,/soft/compilers/cudatoolkit/cuda-11.8.0/lib64 -L/soft/compilers/cudatoolkit/cuda-11.8.0/lib64 -L/soft/compilers/cudatoolkit/cuda-11.8.0/lib64/stubs -Wl,-rpath,/opt/cray/pe/mpich/8.1.16/ofi/gnu/9.1/lib -L/opt/cray/pe/mpich/8.1.16/ofi/gnu/9.1/lib -Wl,-rpath,/opt/cray/pe/mpich/8.1.16/gtl/lib -L/opt/cray/pe/mpich/8.1.16/gtl/lib -Wl,-rpath,/opt/cray/pe/libsci/21.08.1.2/GNU/9.1/x86_64/lib -L/opt/cray/pe/libsci/21.08.1.2/GNU/9.1/x86_64/lib -Wl,-rpath,/opt/cray/pe/pals/1.1.7/lib -L/opt/cray/pe/pals/1.1.7/lib -Wl,-rpath,/opt/cray/pe/pmi/6.1.2/lib -L/opt/cray/pe/pmi/6.1.2/lib -Wl,-rpath,/opt/cray/pe/dsmml/0.2.2/dsmml/lib -L/opt/cray/pe/dsmml/0.2.2/dsmml/lib -Wl,-rpath,/opt/cray/pe/gcc/11.2.0/snos/lib/gcc/x86_64-suse-linux/11.2.0 -L/opt/cray/pe/gcc/11.2.0/snos/lib/gcc/x86_64-suse-linux/11.2.0 -Wl,-rpath,/opt/cray/pe/gcc/11.2.0/snos/lib64 -L/opt/cray/pe/gcc/11.2.0/snos/lib64 -Wl,-rpath,/opt/cray/pe/gcc/11.2.0/snos/lib -L/opt/cray/pe/gcc/11.2.0/snos/lib -lcudart -lnvToolsExt -lcufft -lcublas -lcusparse -lcusolver -lcurand -lcuda -lX11 -ldl -lmpi_gtl_cuda -lgfortran -lm -lsci_gnu_82_mpi -lsci_gnu_82 -lpals -lpmi -lpmi2 -lmpifort_gnu_91 -lmpi_gnu_91 -ldsmml -lgfortran -lquadmath -lpthread -lm -lgcc_s -lstdc++ -lquadmath
-----------------------------------------

