****************************************************************************************************************************************************************
***                                WIDEN YOUR WINDOW TO 160 CHARACTERS.  Use 'enscript -r -fCourier9' to print this document                                 ***
****************************************************************************************************************************************************************

------------------------------------------------------------------ PETSc Performance Summary: ------------------------------------------------------------------

../rosenbrock4 on a arch-alcf-polaris named x3004c0s31b1n0 with 4 processors, by hsuh Thu Oct  5 18:01:40 2023
Using Petsc Development GIT revision: v3.19.5-1158-ga4141c38af3  GIT Date: 2023-10-02 13:14:06 -0500

                         Max       Max/Min     Avg       Total
Time (sec):           2.335e+00     1.000   2.334e+00
Objects:              0.000e+00     0.000   0.000e+00
Flops:                5.560e+09     1.000   5.560e+09  2.224e+10
Flops/sec:            2.382e+09     1.000   2.382e+09  9.528e+09
Memory (bytes):       1.751e+09     1.000   1.751e+09  7.002e+09
MPI Msg Count:        3.200e+01     2.000   2.400e+01  9.600e+01
MPI Msg Len (bytes):  2.480e+02     2.000   7.750e+00  7.440e+02
MPI Reductions:       6.050e+02     1.000

Flop counting convention: 1 flop = 1 real number operation of type (multiply/divide/add/subtract)
                            e.g., VecAXPY() for real vectors of length N --> 2N flops
                            and VecAXPY() for complex vectors of length N --> 8N flops

Summary of Stages:   ----- Time ------  ----- Flop ------  --- Messages ---  -- Message Lengths --  -- Reductions --
                        Avg     %Total     Avg     %Total    Count   %Total     Avg         %Total    Count   %Total
 0:      Main Stage: 7.4410e-01  31.9%  0.0000e+00   0.0%  0.000e+00   0.0%  0.000e+00        0.0%  2.200e+01   3.6%
 1: Rosenbrock solve: 1.5899e+00  68.1%  2.2240e+10 100.0%  9.600e+01 100.0%  7.750e+00      100.0%  5.640e+02  93.2%

------------------------------------------------------------------------------------------------------------------------
See the 'Profiling' chapter of the users' manual for details on interpreting output.
Phase summary info:
   Count: number of times phase was executed
   Time and Flop: Max - maximum over all processors
                  Ratio - ratio of maximum to minimum over all processors
   Mess: number of messages sent
   AvgLen: average message length (bytes)
   Reduct: number of global reductions
   Global: entire computation
   Stage: stages of a computation. Set stages with PetscLogStagePush() and PetscLogStagePop().
      %T - percent time in this phase         %F - percent flop in this phase
      %M - percent messages in this phase     %L - percent message lengths in this phase
      %R - percent reductions in this phase
   Total Mflop/s: 10e-6 * (sum of flop over all processors)/(max time over all processors)
   GPU Mflop/s: 10e-6 * (sum of flop on GPU over all processors)/(max GPU time over all processors)
   CpuToGpu Count: total number of CPU to GPU copies per processor
   CpuToGpu Size (Mbytes): 10e-6 * (total size of CPU to GPU copies per processor)
   GpuToCpu Count: total number of GPU to CPU copies per processor
   GpuToCpu Size (Mbytes): 10e-6 * (total size of GPU to CPU copies per processor)
   GPU %F: percent flops on GPU in this event
------------------------------------------------------------------------------------------------------------------------
Event                Count      Time (sec)     Flop                              --- Global ---  --- Stage ----  Total   GPU    - CpuToGpu -   - GpuToCpu - GPU
                   Max Ratio  Max     Ratio   Max  Ratio  Mess   AvgLen  Reduct  %T %F %M %L %R  %T %F %M %L %R Mflop/s Mflop/s Count   Size   Count   Size  %F
---------------------------------------------------------------------------------------------------------------------------------------------------------------

--- Event Stage 0: Main Stage

BuildTwoSided          4 1.0 1.3261e-02 21.3 0.00e+00 0.0 0.0e+00 0.0e+00 4.0e+00  0  0  0  0  1   1  0  0  0 18     0       0      0 0.00e+00    0 0.00e+00  0
DCtxCreate             1 1.0 2.2662e-05 1.1 0.00e+00 0.0 0.0e+00 0.0e+00 0.0e+00  0  0  0  0  0   0  0  0  0  0     0       0      0 0.00e+00    0 0.00e+00  0
DCtxDestroy            1 1.0 3.7761e-05 1.0 0.00e+00 0.0 0.0e+00 0.0e+00 0.0e+00  0  0  0  0  0   0  0  0  0  0     0       0      0 0.00e+00    0 0.00e+00  0
DCtxSetUp              1 1.0 4.2330e-05 2.1 0.00e+00 0.0 0.0e+00 0.0e+00 0.0e+00  0  0  0  0  0   0  0  0  0  0     0       0      0 0.00e+00    0 0.00e+00  0
DCtxSetDevice          1 1.0 9.2437e-04 1.2 0.00e+00 0.0 0.0e+00 0.0e+00 0.0e+00  0  0  0  0  0   0  0  0  0  0     0       0      0 0.00e+00    0 0.00e+00  0
MatAssemblyBegin       2 1.0 1.7830e-06 2.3 0.00e+00 0.0 0.0e+00 0.0e+00 0.0e+00  0  0  0  0  0   0  0  0  0  0     0       0      0 0.00e+00    0 0.00e+00  0
MatAssemblyEnd         2 1.0 3.8185e-02 1.0 0.00e+00 0.0 0.0e+00 0.0e+00 0.0e+00  2  0  0  0  0   5  0  0  0  0     0       0      0 0.00e+00    0 0.00e+00  0
MatSetPreallCOO        1 1.0 2.3243e-01 1.0 0.00e+00 0.0 0.0e+00 0.0e+00 8.0e+00 10  0  0  0  1  31  0  0  0 36     0       0      0 0.00e+00    0 0.00e+00  0
SFSetGraph             5 1.0 2.7160e-06 1.5 0.00e+00 0.0 0.0e+00 0.0e+00 0.0e+00  0  0  0  0  0   0  0  0  0  0     0       0      0 0.00e+00    0 0.00e+00  0
SFSetUp                4 1.0 4.0510e-02 1.3 0.00e+00 0.0 0.0e+00 0.0e+00 4.0e+00  2  0  0  0  1   5  0  0  0 18     0       0      0 0.00e+00    0 0.00e+00  0
SFReduceBegin          2 1.0 1.6420e-06 1.2 0.00e+00 0.0 0.0e+00 0.0e+00 0.0e+00  0  0  0  0  0   0  0  0  0  0     0       0      0 0.00e+00    0 0.00e+00  0
SFReduceEnd            2 1.0 8.5200e-07 1.3 0.00e+00 0.0 0.0e+00 0.0e+00 0.0e+00  0  0  0  0  0   0  0  0  0  0     0       0      0 0.00e+00    0 0.00e+00  0
SFFetchOpBegin         1 1.0 1.7493e-05 1.1 0.00e+00 0.0 0.0e+00 0.0e+00 0.0e+00  0  0  0  0  0   0  0  0  0  0     0       0      0 0.00e+00    0 0.00e+00  0
SFFetchOpEnd           1 1.0 1.2220e-06 1.1 0.00e+00 0.0 0.0e+00 0.0e+00 0.0e+00  0  0  0  0  0   0  0  0  0  0     0       0      0 0.00e+00    0 0.00e+00  0
SFPack                 3 1.0 2.9100e-07 1.1 0.00e+00 0.0 0.0e+00 0.0e+00 0.0e+00  0  0  0  0  0   0  0  0  0  0     0       0      0 0.00e+00    0 0.00e+00  0
SFUnpack               4 1.0 4.4100e-07 1.2 0.00e+00 0.0 0.0e+00 0.0e+00 0.0e+00  0  0  0  0  0   0  0  0  0  0     0       0      0 0.00e+00    0 0.00e+00  0

--- Event Stage 1: Rosenbrock solve

BuildTwoSided          1 1.0 2.2328e-03 25.4 0.00e+00 0.0 3.0e+00 4.0e+00 1.0e+00  0  0  3  2  0   0  0  3  2  0     0       0      0 0.00e+00    0 0.00e+00  0
Rbock_ObjGrad         30 1.0 1.5045e-01 1.0 4.50e+08 1.0 9.6e+01 7.8e+00 3.1e+01  6  8 100 100  5   9  8 100 100  5 11964       0      0 0.00e+00    0 0.00e+00  0
MatSolve              21 1.0 8.3206e-01 1.0 4.20e+09 1.0 0.0e+00 0.0e+00 4.2e+02 36 76  0  0 69  52 76  0  0 74 20191       0      0 0.00e+00    0 0.00e+00  0
SFSetUp                1 1.0 2.2570e-03 22.2 0.00e+00 0.0 6.0e+00 4.0e+00 1.0e+00  0  0  6  3  0   0  0  6  3  0     0       0      0 0.00e+00    0 0.00e+00  0
SFPack                60 1.0 1.8808e-05 1.6 0.00e+00 0.0 0.0e+00 0.0e+00 0.0e+00  0  0  0  0  0   0  0  0  0  0     0       0      0 0.00e+00    0 0.00e+00  0
SFUnpack              60 1.0 1.2663e-05 1.2 0.00e+00 0.0 0.0e+00 0.0e+00 0.0e+00  0  0  0  0  0   0  0  0  0  0     0       0      0 0.00e+00    0 0.00e+00  0
VecDot               491 1.0 5.0726e-01 1.0 2.45e+09 1.0 0.0e+00 0.0e+00 4.9e+02 21 44  0  0 81  31 44  0  0 87 19359       0      0 0.00e+00    0 0.00e+00  0
VecDotNorm2           20 1.0 6.0828e-02 1.0 2.00e+08 1.0 0.0e+00 0.0e+00 2.0e+01  3  4  0  0  3   4  4  0  0  4 13152       0      0 0.00e+00    0 0.00e+00  0
VecNorm               22 1.0 1.5249e-02 1.0 1.10e+08 1.0 0.0e+00 0.0e+00 2.2e+01  1  2  0  0  4   1  2  0  0  4 28854       0      0 0.00e+00    0 0.00e+00  0
VecScale              21 1.0 9.1201e-03 1.1 5.25e+07 1.0 0.0e+00 0.0e+00 0.0e+00  0  1  0  0  0   1  1  0  0  0 23026       0      0 0.00e+00    0 0.00e+00  0
VecCopy              187 1.0 2.6146e-01 1.0 0.00e+00 0.0 0.0e+00 0.0e+00 0.0e+00 11  0  0  0  0  16  0  0  0  0     0       0      0 0.00e+00    0 0.00e+00  0
VecSet                29 1.0 2.7928e-02 1.1 0.00e+00 0.0 0.0e+00 0.0e+00 0.0e+00  1  0  0  0  0   2  0  0  0  0     0       0      0 0.00e+00    0 0.00e+00  0
VecAXPY              420 1.0 3.6030e-01 1.0 2.10e+09 1.0 0.0e+00 0.0e+00 0.0e+00 15 38  0  0  0  22 38  0  0  0 23314       0      0 0.00e+00    0 0.00e+00  0
VecAYPX               40 1.0 5.5026e-02 1.0 1.00e+08 1.0 0.0e+00 0.0e+00 0.0e+00  2  2  0  0  0   3  2  0  0  0  7269       0      0 0.00e+00    0 0.00e+00  0
VecWAXPY              29 1.0 5.2621e-02 1.0 9.25e+07 1.0 0.0e+00 0.0e+00 0.0e+00  2  2  0  0  0   3  2  0  0  0  7031       0      0 0.00e+00    0 0.00e+00  0
VecScatterBegin       60 1.0 4.7465e-02 1.0 0.00e+00 0.0 9.6e+01 7.8e+00 1.0e+00  2  0 100 100  0   3  0 100 100  0     0       0      0 0.00e+00    0 0.00e+00  0
VecScatterEnd         60 1.0 1.5546e-03 12.7 0.00e+00 0.0 0.0e+00 0.0e+00 0.0e+00  0  0  0  0  0   0  0  0  0  0     0       0      0 0.00e+00    0 0.00e+00  0
TaoSolve               1 1.0 1.4596e+00 1.0 5.56e+09 1.0 9.6e+01 7.8e+00 5.6e+02 62 100 100 100 93  92 100 100 100 100 15237       0      0 0.00e+00    0 0.00e+00  0
TaoObjGradEval        30 1.0 1.5049e-01 1.0 4.50e+08 1.0 9.6e+01 7.8e+00 3.1e+01  6  8 100 100  5   9  8 100 100  5 11961       0      0 0.00e+00    0 0.00e+00  0
TaoLSApply            21 1.0 2.9170e-01 1.0 7.77e+08 1.0 8.7e+01 8.0e+00 7.9e+01 12 14 91 94 13  18 14 91 94 14 10662       0      0 0.00e+00    0 0.00e+00  0
MatLMVMUpdate         21 1.0 2.2985e-01 1.0 3.00e+08 1.0 0.0e+00 0.0e+00 2.0e+01 10  5  0  0  3  14  5  0  0  4  5221       0      0 0.00e+00    0 0.00e+00  0
MatLMVMJ0Inv          21 1.0 2.5176e-02 1.0 0.00e+00 0.0 0.0e+00 0.0e+00 0.0e+00  1  0  0  0  0   2  0  0  0  0     0       0      0 0.00e+00    0 0.00e+00  0
---------------------------------------------------------------------------------------------------------------------------------------------------------------

Object Type          Creations   Destructions. Reports information only for process 0.

--- Event Stage 0: Main Stage

           Container     5              5
  PetscDeviceContext     1              0
              Matrix     5              5
   Star Forest Graph     5              5
              Vector     9             77
           Index Set     2              2
                 Tao     1              1
       TaoLineSearch     1              1
       Krylov Solver     2              2
      Preconditioner     2              2
              Viewer     1              1
              Viewer     1              0

--- Event Stage 1: Rosenbrock solve

              Vector    68              0

--- Event Stage 2: PCMPI

========================================================================================================================
Average time to get PetscTime(): 3.2e-08
Average time for MPI_Barrier(): 3.3102e-06
Average time for zero size MPI_Send(): 1.609e-05
#PETSc Option Table entries:
-log_view :/home/hsuh/bfgs_profiling/polaris_rosenbrock-mpi/rosenbrock_host_bfgs_reorder_dim_10000000_hist_20_np_4.log # (source: command line)
-mat_type aij # (source: command line)
-n 10000000 # (source: command line)
-root_device_context_stream_type default_blocking # (source: command line)
-tao_gatol 1.e-3 # (source: command line)
-tao_lmvm_mat_lmvm_hist_size 20 # (source: command line)
-tao_lmvm_mat_lmvm_scale_type none # (source: command line)
-tao_lmvm_mat_type lmvmbfgs # (source: command line)
-tao_smonitor 0 # (source: command line)
-tao_type lmvm # (source: command line)
#End of PETSc Option Table entries
Compiled without FORTRAN kernels
Compiled with full precision matrices (default)
sizeof(short) 2 sizeof(int) 4 sizeof(long) 8 sizeof(void*) 8 sizeof(PetscScalar) 8 sizeof(PetscInt) 4
Configure options: --with-cc=cc --with-cxx=CC --with-fc=ftn --with-debugging=0 --with-cuda --with-cudac=nvcc --with-cuda-arch=80 --download-random123 --download-sowing --with-mpiexec="mpiexec --cpu-bind list:24:16:8:0:28:20:12:4" COPTFLAGS="-O3 -march=native -ffp-contract=fast" CXXOPTFLAGS="-O3 -march=native -ffp-contract=fast" --force PETSC_ARCH=arch-alcf-polaris
-----------------------------------------
Libraries compiled on 2023-10-03 17:17:36 on polaris-login-04 
Machine characteristics: Linux-5.3.18-150300.59.115-default-x86_64-with-glibc2.3.4
Using PETSc directory: /home/hsuh/petsc
Using PETSc arch: arch-alcf-polaris
-----------------------------------------

Using C compiler: cc  -fPIC -Wall -Wwrite-strings -Wno-unknown-pragmas -Wno-lto-type-mismatch -Wno-stringop-overflow -fstack-protector -fvisibility=hidden -O3 -march=native -ffp-contract=fast  
Using Fortran compiler: ftn  -fPIC -Wall -ffree-line-length-none -ffree-line-length-0 -Wno-lto-type-mismatch -Wno-unused-dummy-argument -g -O    
-----------------------------------------

Using include paths: -I/home/hsuh/petsc/include -I/home/hsuh/petsc/arch-alcf-polaris/include -I/soft/compilers/cudatoolkit/cuda-11.8.0/include
-----------------------------------------

Using C linker: cc
Using Fortran linker: ftn
Using libraries: -Wl,-rpath,/home/hsuh/petsc/arch-alcf-polaris/lib -L/home/hsuh/petsc/arch-alcf-polaris/lib -lpetsc -Wl,-rpath,/soft/compilers/cudatoolkit/cuda-11.8.0/lib64 -L/soft/compilers/cudatoolkit/cuda-11.8.0/lib64 -L/soft/compilers/cudatoolkit/cuda-11.8.0/lib64/stubs -Wl,-rpath,/opt/cray/pe/mpich/8.1.16/ofi/gnu/9.1/lib -L/opt/cray/pe/mpich/8.1.16/ofi/gnu/9.1/lib -Wl,-rpath,/opt/cray/pe/mpich/8.1.16/gtl/lib -L/opt/cray/pe/mpich/8.1.16/gtl/lib -Wl,-rpath,/opt/cray/pe/libsci/21.08.1.2/GNU/9.1/x86_64/lib -L/opt/cray/pe/libsci/21.08.1.2/GNU/9.1/x86_64/lib -Wl,-rpath,/opt/cray/pe/pals/1.1.7/lib -L/opt/cray/pe/pals/1.1.7/lib -Wl,-rpath,/opt/cray/pe/pmi/6.1.2/lib -L/opt/cray/pe/pmi/6.1.2/lib -Wl,-rpath,/opt/cray/pe/dsmml/0.2.2/dsmml/lib -L/opt/cray/pe/dsmml/0.2.2/dsmml/lib -Wl,-rpath,/opt/cray/pe/gcc/11.2.0/snos/lib/gcc/x86_64-suse-linux/11.2.0 -L/opt/cray/pe/gcc/11.2.0/snos/lib/gcc/x86_64-suse-linux/11.2.0 -Wl,-rpath,/opt/cray/pe/gcc/11.2.0/snos/lib64 -L/opt/cray/pe/gcc/11.2.0/snos/lib64 -Wl,-rpath,/opt/cray/pe/gcc/11.2.0/snos/lib -L/opt/cray/pe/gcc/11.2.0/snos/lib -lcudart -lnvToolsExt -lcufft -lcublas -lcusparse -lcusolver -lcurand -lcuda -lX11 -ldl -lmpi_gtl_cuda -lgfortran -lm -lsci_gnu_82_mpi -lsci_gnu_82 -lpals -lpmi -lpmi2 -lmpifort_gnu_91 -lmpi_gnu_91 -ldsmml -lgfortran -lquadmath -lpthread -lm -lgcc_s -lstdc++ -lquadmath
-----------------------------------------

