****************************************************************************************************************************************************************
***                                WIDEN YOUR WINDOW TO 160 CHARACTERS.  Use 'enscript -r -fCourier9' to print this document                                 ***
****************************************************************************************************************************************************************

------------------------------------------------------------------ PETSc Performance Summary: ------------------------------------------------------------------

../rosenbrock4cu on a arch-alcf-polaris named x3005c0s7b1n0 with 4 processors, by hsuh Tue Oct 10 19:53:13 2023
Using Petsc Development GIT revision: v3.19.5-1158-ga4141c38af3  GIT Date: 2023-10-02 13:14:06 -0500

                         Max       Max/Min     Avg       Total
Time (sec):           1.259e+00     1.000   1.259e+00
Objects:              0.000e+00     0.000   0.000e+00
Flops:                2.385e+09     1.000   2.385e+09  9.541e+09
Flops/sec:            1.895e+09     1.000   1.895e+09  7.579e+09
Memory (bytes):       4.144e+06     1.000   4.144e+06  1.658e+07
MPI Msg Count:        3.100e+01     2.000   2.325e+01  9.300e+01
MPI Msg Len (bytes):  2.400e+02     2.000   7.742e+00  7.200e+02
MPI Reductions:       5.590e+02     1.000

Flop counting convention: 1 flop = 1 real number operation of type (multiply/divide/add/subtract)
                            e.g., VecAXPY() for real vectors of length N --> 2N flops
                            and VecAXPY() for complex vectors of length N --> 8N flops

Summary of Stages:   ----- Time ------  ----- Flop ------  --- Messages ---  -- Message Lengths --  -- Reductions --
                        Avg     %Total     Avg     %Total    Count   %Total     Avg         %Total    Count   %Total
 0:      Main Stage: 6.0983e-01  48.4%  0.0000e+00   0.0%  0.000e+00   0.0%  0.000e+00        0.0%  2.200e+01   3.9%
 1: Rosenbrock solve: 2.5674e-02   2.0%  2.0385e+08   2.1%  9.300e+01 100.0%  7.742e+00      100.0%  5.180e+02  92.7%
 2:   Device Warmup: 0.0000e+00   0.0%  0.0000e+00   0.0%  0.000e+00   0.0%  0.000e+00        0.0%  0.000e+00   0.0%

------------------------------------------------------------------------------------------------------------------------
See the 'Profiling' chapter of the users' manual for details on interpreting output.
Phase summary info:
   Count: number of times phase was executed
   Time and Flop: Max - maximum over all processors
                  Ratio - ratio of maximum to minimum over all processors
   Mess: number of messages sent
   AvgLen: average message length (bytes)
   Reduct: number of global reductions
   Global: entire computation
   Stage: stages of a computation. Set stages with PetscLogStagePush() and PetscLogStagePop().
      %T - percent time in this phase         %F - percent flop in this phase
      %M - percent messages in this phase     %L - percent message lengths in this phase
      %R - percent reductions in this phase
   Total Mflop/s: 10e-6 * (sum of flop over all processors)/(max time over all processors)
   GPU Mflop/s: 10e-6 * (sum of flop on GPU over all processors)/(max GPU time over all processors)
   CpuToGpu Count: total number of CPU to GPU copies per processor
   CpuToGpu Size (Mbytes): 10e-6 * (total size of CPU to GPU copies per processor)
   GpuToCpu Count: total number of GPU to CPU copies per processor
   GpuToCpu Size (Mbytes): 10e-6 * (total size of GPU to CPU copies per processor)
   GPU %F: percent flops on GPU in this event
------------------------------------------------------------------------------------------------------------------------
Event                Count      Time (sec)     Flop                              --- Global ---  --- Stage ----  Total   GPU    - CpuToGpu -   - GpuToCpu - GPU
                   Max Ratio  Max     Ratio   Max  Ratio  Mess   AvgLen  Reduct  %T %F %M %L %R  %T %F %M %L %R Mflop/s Mflop/s Count   Size   Count   Size  %F
---------------------------------------------------------------------------------------------------------------------------------------------------------------

--- Event Stage 0: Main Stage

BuildTwoSided          4 1.0   nan nan 0.00e+00 0.0 0.0e+00 0.0e+00 4.0e+00  0  0  0  0  1   0  0  0  0 18  -nan    -nan      0 0.00e+00    0 0.00e+00  0
DCtxCreate             2 1.0   nan nan 0.00e+00 0.0 0.0e+00 0.0e+00 0.0e+00  0  0  0  0  0   0  0  0  0  0  -nan    -nan      0 0.00e+00    0 0.00e+00  0
DCtxDestroy            2 1.0   nan nan 0.00e+00 0.0 0.0e+00 0.0e+00 0.0e+00  0  0  0  0  0   0  0  0  0  0  -nan    -nan      0 0.00e+00    0 0.00e+00  0
DCtxSetUp              2 1.0   nan nan 0.00e+00 0.0 0.0e+00 0.0e+00 0.0e+00  0  0  0  0  0   0  0  0  0  0  -nan    -nan      0 0.00e+00    0 0.00e+00  0
DCtxSetDevice          2 1.0   nan nan 0.00e+00 0.0 0.0e+00 0.0e+00 0.0e+00  0  0  0  0  0   0  0  0  0  0  -nan    -nan      0 0.00e+00    0 0.00e+00  0
DCtxSync               6 1.0   nan nan 0.00e+00 0.0 0.0e+00 0.0e+00 0.0e+00  0  0  0  0  0   0  0  0  0  0  -nan    -nan      0 0.00e+00    0 0.00e+00  0
MatConvert             2 1.0   nan nan 0.00e+00 0.0 0.0e+00 0.0e+00 0.0e+00 12  0  0  0  0  24  0  0  0  0  -nan    -nan      0 0.00e+00    0 0.00e+00  0
MatAssemblyBegin       2 1.0   nan nan 0.00e+00 0.0 0.0e+00 0.0e+00 0.0e+00  0  0  0  0  0   0  0  0  0  0  -nan    -nan      0 0.00e+00    0 0.00e+00  0
MatAssemblyEnd         2 1.0   nan nan 0.00e+00 0.0 0.0e+00 0.0e+00 0.0e+00  0  0  0  0  0   0  0  0  0  0  -nan    -nan      0 0.00e+00    0 0.00e+00  0
MatCUSPARSCopyTo       2 1.0   nan nan 0.00e+00 0.0 0.0e+00 0.0e+00 0.0e+00  0  0  0  0  0   0  0  0  0  0  -nan    -nan      2 7.00e-01    0 0.00e+00  0
MatSetPreallCOO        1 1.0   nan nan 0.00e+00 0.0 0.0e+00 0.0e+00 8.0e+00 12  0  0  0  1  25  0  0  0 36  -nan    -nan      2 7.00e-01    0 0.00e+00  0
SFSetGraph             5 1.0   nan nan 0.00e+00 0.0 0.0e+00 0.0e+00 0.0e+00  0  0  0  0  0   0  0  0  0  0  -nan    -nan      0 0.00e+00    0 0.00e+00  0
SFSetUp                4 1.0   nan nan 0.00e+00 0.0 0.0e+00 0.0e+00 4.0e+00  0  0  0  0  1   0  0  0  0 18  -nan    -nan      0 0.00e+00    0 0.00e+00  0
SFReduceBegin          2 1.0   nan nan 0.00e+00 0.0 0.0e+00 0.0e+00 0.0e+00  0  0  0  0  0   0  0  0  0  0  -nan    -nan      0 0.00e+00    0 0.00e+00  0
SFReduceEnd            2 1.0   nan nan 0.00e+00 0.0 0.0e+00 0.0e+00 0.0e+00  0  0  0  0  0   0  0  0  0  0  -nan    -nan      0 0.00e+00    0 0.00e+00  0
SFFetchOpBegin         1 1.0   nan nan 0.00e+00 0.0 0.0e+00 0.0e+00 0.0e+00  0  0  0  0  0   0  0  0  0  0  -nan    -nan      0 0.00e+00    0 0.00e+00  0
SFFetchOpEnd           1 1.0   nan nan 0.00e+00 0.0 0.0e+00 0.0e+00 0.0e+00  0  0  0  0  0   0  0  0  0  0  -nan    -nan      0 0.00e+00    0 0.00e+00  0
SFPack                 3 1.0   nan nan 0.00e+00 0.0 0.0e+00 0.0e+00 0.0e+00  0  0  0  0  0   0  0  0  0  0  -nan    -nan      0 0.00e+00    0 0.00e+00  0
SFUnpack               4 1.0   nan nan 0.00e+00 0.0 0.0e+00 0.0e+00 0.0e+00  0  0  0  0  0   0  0  0  0  0  -nan    -nan      0 0.00e+00    0 0.00e+00  0
VecSet                 6 1.0   nan nan 0.00e+00 0.0 0.0e+00 0.0e+00 0.0e+00  0  0  0  0  0   0  0  0  0  0  -nan    -nan      0 0.00e+00    0 0.00e+00  0

--- Event Stage 1: Rosenbrock solve

BuildTwoSided          1 1.0   nan nan 0.00e+00 0.0 3.0e+00 4.0e+00 1.0e+00  0  0  3  2  0   3  0  3  2  0  -nan    -nan      0 0.00e+00    0 0.00e+00  0
Rbock_ObjGrad         29 1.0   nan nan 4.71e+06 1.0 9.3e+01 7.7e+00 3.0e+01  1  0 100 100  5  25  9 100 100  6  -nan    -nan     22 1.74e-04   22 1.74e-04  100
DCtxSync              28 1.0   nan nan 0.00e+00 0.0 0.0e+00 0.0e+00 0.0e+00  0  0  0  0  0   1  0  0  0  0  -nan    -nan      0 0.00e+00    0 0.00e+00  0
MatSolve              20 1.0   nan nan 3.80e+07 1.0 0.0e+00 0.0e+00 3.8e+02  1  2  0  0 68  47 75  0  0 73  -nan    -nan      0 0.00e+00    0 0.00e+00  100
SFSetUp                1 1.0   nan nan 0.00e+00 0.0 6.0e+00 4.0e+00 1.0e+00  0  0  6  3  0   3  0  6  3  0  -nan    -nan      0 0.00e+00    0 0.00e+00  0
SFPack                58 1.0   nan nan 0.00e+00 0.0 0.0e+00 0.0e+00 0.0e+00  0  0  0  0  0   0  0  0  0  0  -nan    -nan      0 0.00e+00    0 0.00e+00  0
SFUnpack              58 1.0   nan nan 0.00e+00 0.0 0.0e+00 0.0e+00 0.0e+00  0  0  0  0  0   0  0  0  0  0  -nan    -nan      0 0.00e+00    0 0.00e+00  0
VecDot               448 1.0   nan nan 2.24e+07 1.0 0.0e+00 0.0e+00 4.5e+02  1  1  0  0 80  51 44  0  0 86  -nan    -nan      0 0.00e+00    0 0.00e+00  100
VecDotNorm2           19 1.0   nan nan 0.00e+00 0.0 0.0e+00 0.0e+00 1.9e+01  0  0  0  0  3   6  0  0  0  4  -nan    -nan      0 0.00e+00    0 0.00e+00  0
VecNorm               21 1.0   nan nan 1.05e+06 1.0 0.0e+00 0.0e+00 2.1e+01  0  0  0  0  4   5  2  0  0  4  -nan    -nan      0 0.00e+00    0 0.00e+00  100
VecScale              20 1.0   nan nan 5.00e+05 1.0 0.0e+00 0.0e+00 0.0e+00  0  0  0  0  0   0  1  0  0  0  -nan    -nan      0 0.00e+00    0 0.00e+00  100
VecCopy              178 1.0   nan nan 0.00e+00 0.0 0.0e+00 0.0e+00 0.0e+00  0  0  0  0  0   2  0  0  0  0  -nan    -nan      0 0.00e+00    0 0.00e+00  0
VecSet                28 1.0   nan nan 0.00e+00 0.0 0.0e+00 0.0e+00 0.0e+00  0  0  0  0  0   1  0  0  0  0  -nan    -nan      0 0.00e+00    0 0.00e+00  0
VecAXPY              380 1.0   nan nan 1.90e+07 1.0 0.0e+00 0.0e+00 0.0e+00  0  1  0  0  0   3 37  0  0  0  -nan    -nan      0 0.00e+00    0 0.00e+00  100
VecAYPX               38 1.0   nan nan 1.90e+06 1.0 0.0e+00 0.0e+00 0.0e+00  0  0  0  0  0   1  4  0  0  0  -nan    -nan      0 0.00e+00    0 0.00e+00  100
VecWAXPY              28 1.0   nan nan 1.40e+06 1.0 0.0e+00 0.0e+00 0.0e+00  0  0  0  0  0   1  3  0  0  0  -nan    -nan      0 0.00e+00    0 0.00e+00  100
VecScatterBegin       58 1.0   nan nan 0.00e+00 0.0 9.3e+01 7.7e+00 1.0e+00  0  0 100 100  0  17  0 100 100  0  -nan    -nan      0 0.00e+00   22 1.74e-04  0
VecScatterEnd         58 1.0   nan nan 0.00e+00 0.0 0.0e+00 0.0e+00 0.0e+00  0  0  0  0  0   1  0  0  0  0  -nan    -nan     22 1.74e-04    0 0.00e+00  0
TaoSolve               1 1.0 2.4969e-02 1.0 5.10e+07 1.0 9.3e+01 7.7e+00 5.2e+02  2  2 100 100 93  96 100 100 100 100  8164    -nan     22 1.74e-04   22 1.74e-04  100
TaoObjGradEval        29 1.0   nan nan 4.71e+06 1.0 9.3e+01 7.7e+00 3.0e+01  1  0 100 100  5  25  9 100 100  6  -nan    -nan     22 1.74e-04   22 1.74e-04  100
TaoLSApply            20 1.0   nan nan 8.35e+06 1.0 8.4e+01 8.0e+00 7.6e+01  0  0 90 93 14  17 16 90 93 15  -nan    -nan     21 1.68e-04   21 1.68e-04  100
MatLMVMUpdate         20 1.0   nan nan 1.90e+06 1.0 0.0e+00 0.0e+00 1.9e+01  0  0  0  0  3   8  4  0  0  4  -nan    -nan      0 0.00e+00    0 0.00e+00  100
MatLMVMJ0Inv          20 1.0   nan nan 0.00e+00 0.0 0.0e+00 0.0e+00 0.0e+00  0  0  0  0  0   0  0  0  0  0  -nan    -nan      0 0.00e+00    0 0.00e+00  0

--- Event Stage 2: Device Warmup

---------------------------------------------------------------------------------------------------------------------------------------------------------------

Object Type          Creations   Destructions. Reports information only for process 0.

--- Event Stage 0: Main Stage

           Container     6              6
  PetscDeviceContext     2              0
              Matrix     5              5
   Star Forest Graph     5              5
              Vector     9            167
           Index Set     2              2
                 Tao     1              1
       TaoLineSearch     1              1
       Krylov Solver     2              2
      Preconditioner     2              2
              Viewer     1              1
              Viewer     1              0

--- Event Stage 1: Rosenbrock solve

              Vector   158              0

--- Event Stage 2: Device Warmup

              Matrix     2              2
              Vector     2              2
         PetscRandom     2              2

--- Event Stage 3: PCMPI

========================================================================================================================
Average time to get PetscTime(): 3.01e-08
Average time for MPI_Barrier(): 3.154e-06
Average time for zero size MPI_Send(): 1.1008e-05
#PETSc Option Table entries:
-log_view :/home/hsuh/bfgs_profiling/polaris_rosenbrock-mpi/rosenbrock_device_bfgs_reorder_dim_100000_hist_50_np_4.log # (source: command line)
-mat_type aijcusparse # (source: command line)
-n 100000 # (source: command line)
-root_device_context_stream_type default_blocking # (source: command line)
-tao_gatol 1.e-3 # (source: command line)
-tao_lmvm_mat_lmvm_hist_size 50 # (source: command line)
-tao_lmvm_mat_lmvm_scale_type none # (source: command line)
-tao_lmvm_mat_type lmvmbfgs # (source: command line)
-tao_smonitor 0 # (source: command line)
-tao_type lmvm # (source: command line)
#End of PETSc Option Table entries
Compiled without FORTRAN kernels
Compiled with full precision matrices (default)
sizeof(short) 2 sizeof(int) 4 sizeof(long) 8 sizeof(void*) 8 sizeof(PetscScalar) 8 sizeof(PetscInt) 4
Configure options: --with-cc=cc --with-cxx=CC --with-fc=ftn --with-debugging=0 --with-cuda --with-cudac=nvcc --with-cuda-arch=80 --download-random123 --download-sowing --with-mpiexec="mpiexec --cpu-bind list:24:16:8:0:28:20:12:4" COPTFLAGS="-O3 -march=native -ffp-contract=fast" CXXOPTFLAGS="-O3 -march=native -ffp-contract=fast" --force PETSC_ARCH=arch-alcf-polaris
-----------------------------------------
Libraries compiled on 2023-10-03 17:17:36 on polaris-login-04 
Machine characteristics: Linux-5.3.18-150300.59.115-default-x86_64-with-glibc2.3.4
Using PETSc directory: /home/hsuh/petsc
Using PETSc arch: arch-alcf-polaris
-----------------------------------------

Using C compiler: cc  -fPIC -Wall -Wwrite-strings -Wno-unknown-pragmas -Wno-lto-type-mismatch -Wno-stringop-overflow -fstack-protector -fvisibility=hidden -O3 -march=native -ffp-contract=fast  
Using Fortran compiler: ftn  -fPIC -Wall -ffree-line-length-none -ffree-line-length-0 -Wno-lto-type-mismatch -Wno-unused-dummy-argument -g -O    
-----------------------------------------

Using include paths: -I/home/hsuh/petsc/include -I/home/hsuh/petsc/arch-alcf-polaris/include -I/soft/compilers/cudatoolkit/cuda-11.8.0/include
-----------------------------------------

Using C linker: cc
Using Fortran linker: ftn
Using libraries: -Wl,-rpath,/home/hsuh/petsc/arch-alcf-polaris/lib -L/home/hsuh/petsc/arch-alcf-polaris/lib -lpetsc -Wl,-rpath,/soft/compilers/cudatoolkit/cuda-11.8.0/lib64 -L/soft/compilers/cudatoolkit/cuda-11.8.0/lib64 -L/soft/compilers/cudatoolkit/cuda-11.8.0/lib64/stubs -Wl,-rpath,/opt/cray/pe/mpich/8.1.16/ofi/gnu/9.1/lib -L/opt/cray/pe/mpich/8.1.16/ofi/gnu/9.1/lib -Wl,-rpath,/opt/cray/pe/mpich/8.1.16/gtl/lib -L/opt/cray/pe/mpich/8.1.16/gtl/lib -Wl,-rpath,/opt/cray/pe/libsci/21.08.1.2/GNU/9.1/x86_64/lib -L/opt/cray/pe/libsci/21.08.1.2/GNU/9.1/x86_64/lib -Wl,-rpath,/opt/cray/pe/pals/1.1.7/lib -L/opt/cray/pe/pals/1.1.7/lib -Wl,-rpath,/opt/cray/pe/pmi/6.1.2/lib -L/opt/cray/pe/pmi/6.1.2/lib -Wl,-rpath,/opt/cray/pe/dsmml/0.2.2/dsmml/lib -L/opt/cray/pe/dsmml/0.2.2/dsmml/lib -Wl,-rpath,/opt/cray/pe/gcc/11.2.0/snos/lib/gcc/x86_64-suse-linux/11.2.0 -L/opt/cray/pe/gcc/11.2.0/snos/lib/gcc/x86_64-suse-linux/11.2.0 -Wl,-rpath,/opt/cray/pe/gcc/11.2.0/snos/lib64 -L/opt/cray/pe/gcc/11.2.0/snos/lib64 -Wl,-rpath,/opt/cray/pe/gcc/11.2.0/snos/lib -L/opt/cray/pe/gcc/11.2.0/snos/lib -lcudart -lnvToolsExt -lcufft -lcublas -lcusparse -lcusolver -lcurand -lcuda -lX11 -ldl -lmpi_gtl_cuda -lgfortran -lm -lsci_gnu_82_mpi -lsci_gnu_82 -lpals -lpmi -lpmi2 -lmpifort_gnu_91 -lmpi_gnu_91 -ldsmml -lgfortran -lquadmath -lpthread -lm -lgcc_s -lstdc++ -lquadmath
-----------------------------------------

