****************************************************************************************************************************************************************
***                                WIDEN YOUR WINDOW TO 160 CHARACTERS.  Use 'enscript -r -fCourier9' to print this document                                 ***
****************************************************************************************************************************************************************

------------------------------------------------------------------ PETSc Performance Summary: ------------------------------------------------------------------

../solve_performance on a arch-cdbfgs-async-opt named x3208c0s19b0n0 with 4 processors, by tisaac Tue Sep 26 02:14:39 2023
Using Petsc Development GIT revision: v3.19.5-1149-g2966cee168c  GIT Date: 2023-09-22 15:13:21 -0400

                         Max       Max/Min     Avg       Total
Time (sec):           8.367e-01     1.003   8.351e-01
Objects:              0.000e+00     0.000   0.000e+00
Flops:                1.559e+07     1.000   1.559e+07  6.234e+07
Flops/sec:            1.867e+07     1.003   1.866e+07  7.465e+07
Memory (bytes):       1.179e+06     1.000   1.179e+06  4.716e+06
MPI Msg Count:        0.000e+00     0.000   0.000e+00  0.000e+00
MPI Msg Len (bytes):  0.000e+00     0.000   0.000e+00  0.000e+00
MPI Reductions:       1.533e+04     1.000

Flop counting convention: 1 flop = 1 real number operation of type (multiply/divide/add/subtract)
                            e.g., VecAXPY() for real vectors of length N --> 2N flops
                            and VecAXPY() for complex vectors of length N --> 8N flops

Summary of Stages:   ----- Time ------  ----- Flop ------  --- Messages ---  -- Message Lengths --  -- Reductions --
                        Avg     %Total     Avg     %Total    Count   %Total     Avg         %Total    Count   %Total
 2: LMVM MatSolve Loop: 6.3851e-02   7.6%  3.1170e+07  50.0%  0.000e+00   0.0%  0.000e+00        0.0%  7.650e+03  49.9%

------------------------------------------------------------------------------------------------------------------------
See the 'Profiling' chapter of the users' manual for details on interpreting output.
Phase summary info:
   Count: number of times phase was executed
   Time and Flop: Max - maximum over all processors
                  Ratio - ratio of maximum to minimum over all processors
   Mess: number of messages sent
   AvgLen: average message length (bytes)
   Reduct: number of global reductions
   Global: entire computation
   Stage: stages of a computation. Set stages with PetscLogStagePush() and PetscLogStagePop().
      %T - percent time in this phase         %F - percent flop in this phase
      %M - percent messages in this phase     %L - percent message lengths in this phase
      %R - percent reductions in this phase
   Total Mflop/s: 10e-6 * (sum of flop over all processors)/(max time over all processors)
   GPU Mflop/s: 10e-6 * (sum of flop on GPU over all processors)/(max GPU time over all processors)
   CpuToGpu Count: total number of CPU to GPU copies per processor
   CpuToGpu Size (Mbytes): 10e-6 * (total size of CPU to GPU copies per processor)
   GpuToCpu Count: total number of GPU to CPU copies per processor
   GpuToCpu Size (Mbytes): 10e-6 * (total size of GPU to CPU copies per processor)
   GPU %F: percent flops on GPU in this event
------------------------------------------------------------------------------------------------------------------------
Event                Count      Time (sec)     Flop                              --- Global ---  --- Stage ----  Total   GPU    - CpuToGpu -   - GpuToCpu - GPU
                   Max Ratio  Max     Ratio   Max  Ratio  Mess   AvgLen  Reduct  %T %F %M %L %R  %T %F %M %L %R Mflop/s Mflop/s Count   Size   Count   Size  %F
---------------------------------------------------------------------------------------------------------------------------------------------------------------

--- Event Stage 2: LMVM MatSolve Loop

VecDot              7550 1.0 2.9363e-02 1.0 3.77e+06 1.0 0.0e+00 0.0e+00 7.6e+03  3 24  0  0 49  46 48  0  0 99   513       0      0 0.00e+00    0 0.00e+00  0
VecDotNorm2          100 1.0 4.7060e-04 1.1 1.00e+05 1.0 0.0e+00 0.0e+00 1.0e+02  0  1  0  0  1   1  1  0  0  1   850       0      0 0.00e+00    0 0.00e+00  0
VecCopy              602 1.0 8.1426e-04 1.0 0.00e+00 0.0 0.0e+00 0.0e+00 0.0e+00  0  0  0  0  0   1  0  0  0  0     0       0      0 0.00e+00    0 0.00e+00  0
VecAXPY             7750 1.0 1.0403e-02 1.0 3.88e+06 1.0 0.0e+00 0.0e+00 0.0e+00  1 25  0  0  0  16 50  0  0  0  1490       0      0 0.00e+00    0 0.00e+00  0
VecAYPX              200 1.0 2.7126e-04 1.0 5.00e+04 1.0 0.0e+00 0.0e+00 0.0e+00  0  0  0  0  0   0  1  0  0  0   737       0      0 0.00e+00    0 0.00e+00  0
MatSolve             100 1.0 6.0693e-02 1.0 7.54e+06 1.0 0.0e+00 0.0e+00 7.6e+03  7 48  0  0 49  95 97  0  0 99   497       0      0 0.00e+00    0 0.00e+00  0
MatLMVMUpdate        101 1.0 2.3715e-03 1.0 1.50e+05 1.0 0.0e+00 0.0e+00 1.0e+02  0  1  0  0  1   4  2  0  0  1   253       0      0 0.00e+00    0 0.00e+00  0
MatLMVMJ0Inv         100 1.0 4.0445e-04 1.0 0.00e+00 0.0 0.0e+00 0.0e+00 0.0e+00  0  0  0  0  0   1  0  0  0  0     0       0      0 0.00e+00    0 0.00e+00  0
---------------------------------------------------------------------------------------------------------------------------------------------------------------

Object Type          Creations   Destructions. Reports information only for process 0.

--- Event Stage 0: Main Stage

           Container     4              4
              Vector   201            201
       Krylov Solver     2              2
              Matrix     2              2
      Preconditioner     2              2
         PetscRandom     1              1
  PetscDeviceContext     1              0
              Viewer     1              1
              Viewer     1              0

--- Event Stage 1: PCMPI


--- Event Stage 2: LMVM MatSolve Loop

========================================================================================================================
Average time to get PetscTime(): 1.2711e-06
Average time for MPI_Barrier(): 3.1708e-06
Average time for zero size MPI_Send(): 1.6919e-05
#PETSc Option Table entries:
-epochs 1 # (source: command line)
-iters 100 # (source: command line)
-log_view :/home/tisaac/Projects/bfgs_profiling/polaris-mpi/solve_performance_host_bfgs_reorder_dim_1000_hist_50_epochs_1_iters_100.log # (source: command line)
-mat_lmvm_hist_size 50 # (source: command line)
-mat_lmvm_scale_type none # (source: command line)
-mat_type lmvmbfgs # (source: command line)
-n 1000 # (source: command line)
-random_type random123 # (source: command line)
-root_device_context_stream_type default_blocking # (source: command line)
-vec_type standard # (source: command line)
#End of PETSc Option Table entries
Compiled without FORTRAN kernels
Compiled with full precision matrices (default)
sizeof(short) 2 sizeof(int) 4 sizeof(long) 8 sizeof(void*) 8 sizeof(PetscScalar) 8 sizeof(PetscInt) 4
Configure options: --download-random123 --download-sowing --with-cc=cc --with-cuda --with-cuda-arch=80 --with-cudac=nvcc --with-cxx=CC --with-debugging=0 --with-fc=ftn --with-mpiexec="mpiexec --cpu=bind list:24:16:8:0:28:20:12:4" COPTFLAGS="-O3 -march=native -ffp-contract=fast" CXXOPTFLAGS="-O3 -march=native -ffp-contract=fast" PETSC_ARCH=arch-cdbfgs-async-opt --with-mpiexec="mpiexec --cpu-bind list:24:16:8:0:28:20:12:4"
-----------------------------------------
Libraries compiled on 2023-09-25 20:58:57 on x3013c0s7b0n0 
Machine characteristics: Linux-5.3.18-150300.59.115-default-x86_64-with-glibc2.3.4
Using PETSc directory: /home/tisaac/Projects/petsc
Using PETSc arch: arch-cdbfgs-async-opt
-----------------------------------------

Using C compiler: cc  -fPIC -Wall -Wwrite-strings -Wno-unknown-pragmas -Wno-lto-type-mismatch -Wno-stringop-overflow -fstack-protector -fvisibility=hidden -O3 -march=native -ffp-contract=fast  
Using Fortran compiler: ftn  -fPIC -Wall -ffree-line-length-none -ffree-line-length-0 -Wno-lto-type-mismatch -Wno-unused-dummy-argument -g -O    
-----------------------------------------

Using include paths: -I/home/tisaac/Projects/petsc/include -I/home/tisaac/Projects/petsc/arch-cdbfgs-async-opt/include -I/soft/compilers/cudatoolkit/cuda-11.8.0/include
-----------------------------------------

Using C linker: cc
Using Fortran linker: ftn
Using libraries: -Wl,-rpath,/home/tisaac/Projects/petsc/arch-cdbfgs-async-opt/lib -L/home/tisaac/Projects/petsc/arch-cdbfgs-async-opt/lib -lpetsc -Wl,-rpath,/soft/compilers/cudatoolkit/cuda-11.8.0/lib64 -L/soft/compilers/cudatoolkit/cuda-11.8.0/lib64 -L/soft/compilers/cudatoolkit/cuda-11.8.0/lib64/stubs -Wl,-rpath,/opt/cray/pe/mpich/8.1.16/ofi/gnu/9.1/lib -L/opt/cray/pe/mpich/8.1.16/ofi/gnu/9.1/lib -Wl,-rpath,/opt/cray/pe/mpich/8.1.16/gtl/lib -L/opt/cray/pe/mpich/8.1.16/gtl/lib -Wl,-rpath,/opt/cray/pe/libsci/21.08.1.2/GNU/9.1/x86_64/lib -L/opt/cray/pe/libsci/21.08.1.2/GNU/9.1/x86_64/lib -Wl,-rpath,/opt/cray/pe/pals/1.1.7/lib -L/opt/cray/pe/pals/1.1.7/lib -Wl,-rpath,/opt/cray/pe/pmi/6.1.2/lib -L/opt/cray/pe/pmi/6.1.2/lib -Wl,-rpath,/opt/cray/pe/dsmml/0.2.2/dsmml/lib -L/opt/cray/pe/dsmml/0.2.2/dsmml/lib -Wl,-rpath,/opt/cray/pe/gcc/11.2.0/snos/lib/gcc/x86_64-suse-linux/11.2.0 -L/opt/cray/pe/gcc/11.2.0/snos/lib/gcc/x86_64-suse-linux/11.2.0 -Wl,-rpath,/opt/cray/pe/gcc/11.2.0/snos/lib64 -L/opt/cray/pe/gcc/11.2.0/snos/lib64 -Wl,-rpath,/opt/cray/pe/gcc/11.2.0/snos/lib -L/opt/cray/pe/gcc/11.2.0/snos/lib -lcudart -lnvToolsExt -lcufft -lcublas -lcusparse -lcusolver -lcurand -lcuda -lX11 -ldl -lmpi_gtl_cuda -lgfortran -lm -lsci_gnu_82_mpi -lsci_gnu_82 -lpals -lpmi -lpmi2 -lmpifort_gnu_91 -lmpi_gnu_91 -ldsmml -lgfortran -lquadmath -lpthread -lm -lgcc_s -lstdc++ -lquadmath
-----------------------------------------

